Division,WeightClassKg,Place,Name,Team,BodyweightKg,Best3SquatKg,Best3BenchKg,Best3DeadliftKg,TotalKg,Equipment,Event,Sex
Boys,52,1,Eliazar Venegas,Waco Midway,49.08,108.86,63.5,122.47,294.84,Single-ply,SBD,M
Boys,52,2,Max Castelli,Belton,51.62,104.33,61.23,111.13,276.69,Single-ply,SBD,M
Boys,52,3,Mason Johnson,Gatesville,48.9,92.99,56.7,111.13,260.82,Single-ply,SBD,M
Boys,52,4,James Langerman,Waco Midway,44,40.82,22.68,68.04,131.54,Single-ply,SBD,M
Boys,56,1,Juan Sanchez,Waco,55.79,136.08,88.45,156.49,381.02,Single-ply,SBD,M
Boys,56,2,Travis Potter,Gatesville,54.34,136.08,70.31,138.35,344.73,Single-ply,SBD,M
Boys,56,3,Kevin Sanders,Waco,52.44,104.33,63.5,133.81,301.64,Single-ply,SBD,M
Boys,56,4,Devonte Beasley,Belton,55.34,108.86,65.77,127.01,301.64,Single-ply,SBD,M
Boys,56,5,Faison Stroop,Waco University,54.7,102.06,65.77,124.74,292.57,Single-ply,SBD,M
Boys,56,DQ,Alain Rabarisoamihono,Temple,,,,,,Single-ply,SBD,M
Boys,60,1,Joe Rangel,Cameron Yoe,59.87,106.59,63.5,147.42,317.51,Single-ply,SBD,M
Boys,60,2,Santi Piedrahita,Belton,56.7,122.47,63.5,124.74,310.71,Single-ply,SBD,M
Boys,60,3,Colten Kirkpatrick,Waco Midway,59.78,102.06,58.97,113.4,274.42,Single-ply,SBD,M
Boys,60,DQ,Jacob Sandoval,Belton,58.33,90.72,56.7,124.74,,Single-ply,SBD,M
Boys,60,DQ,Gerald Fountain,Belton,58.97,92.99,,,,Single-ply,SBD,M
Boys,60,DQ,Angel Munoz,Waco,59.78,,,,,Single-ply,SBD,M
Boys,60,DQ,Jaylen Montgomery,Waco Midway,58.97,97.52,,,,Single-ply,SBD,M
Boys,60,DQ,Jose Marquez,Waco,58.33,,,,,Single-ply,SBD,M
Boys,67.5,1,Dwight Roberts,Temple,63.96,149.69,108.86,188.24,446.79,Single-ply,SBD,M
Boys,67.5,2,Christian Castillo,Belton,64,172.37,88.45,163.29,424.11,Single-ply,SBD,M
Boys,67.5,3,Estafano Lopez,Waco University,60.06,158.76,92.99,154.22,405.97,Single-ply,SBD,M
Boys,67.5,4,Salomon Torres,Waco University,67.13,158.76,88.45,156.49,403.7,Single-ply,SBD,M
Boys,67.5,5,Trestan Hudnall,Killeen Ellison,63.5,147.42,92.99,161.03,401.43,Single-ply,SBD,M
Boys,67.5,6,Jake Wiseman,Waco Midway,65.86,142.88,74.84,161.03,378.75,Single-ply,SBD,M
Boys,67.5,7,Patrick Frazho,Belton,64.86,136.08,77.11,147.42,360.61,Single-ply,SBD,M
Boys,67.5,DQ,Jaylun Taylor,Gatesville,,,,,,Single-ply,SBD,M
Boys,67.5,DQ,Savion Thompson,Temple,,,,,,Single-ply,SBD,M
Boys,75,1,Devayse Little,Belton,74.39,181.44,111.13,185.97,478.54,Single-ply,SBD,M
Boys,75,2,Craig Dawson,Waco Midway,70.49,181.44,104.33,176.9,462.66,Single-ply,SBD,M
Boys,75,3,Tyheme Isabel,Waco,69.67,183.7,95.25,176.9,455.86,Single-ply,SBD,M
Boys,75,4,Mark Mebane,Belton,71.67,185.97,97.52,170.1,453.59,Single-ply,SBD,M
Boys,75,5,Alex Aguillon,Cameron Yoe,71.76,167.83,88.45,195.04,451.32,Single-ply,SBD,M
Boys,75,6,Andi Riley,Copperas Cove,73.66,149.69,88.45,165.56,403.7,Single-ply,SBD,M
Boys,75,7,Brooks Barnett,Waco Midway,72.39,147.42,74.84,170.1,392.36,Single-ply,SBD,M
Boys,75,8,Devin Rapper,Belton,71.67,140.61,90.72,156.49,387.82,Single-ply,SBD,M
Boys,75,9,Kyle Ebanies,Temple,74.57,142.88,83.91,147.42,374.21,Single-ply,SBD,M
Boys,75,10,Dai'shawn Fisher,Waco,72.85,142.88,77.11,145.15,365.14,Single-ply,SBD,M
Boys,75,11,Miguel Pérez,Waco,73.75,127.01,74.84,145.15,347,Single-ply,SBD,M
Boys,75,12,Jacob Essix,Waco,70.13,106.59,61.23,117.93,285.76,Single-ply,SBD,M
Boys,75,DQ,BJ Sculark,Temple,,,,,,Single-ply,SBD,M
Boys,75,DQ,Kyland Sauls,Temple,,,,,,Single-ply,SBD,M
Boys,75,DQ,Angelo Sibille,Belton,73.62,145.15,92.99,165.56,,Single-ply,SBD,M
Boys,75,DQ,Joshua Pettit,Copperas Cove,67.86,165.56,,,,Single-ply,SBD,M
Boys,82.5,1,Omar Essix,Waco,80.38,249.48,124.74,260.82,635.03,Single-ply,SBD,M
Boys,82.5,2,Tydrick Williams,Cameron Yoe,78.29,192.78,124.74,201.85,519.36,Single-ply,SBD,M
Boys,82.5,3,Dj Hampton,Copperas Cove,82.01,163.29,104.33,192.78,460.4,Single-ply,SBD,M
Boys,82.5,4,Caison Schurr,Belton,77.11,170.1,97.52,181.44,449.06,Single-ply,SBD,M
Boys,82.5,5,Kevin Avdic,Cameron Yoe,80.65,163.29,111.13,174.63,449.06,Single-ply,SBD,M
Boys,82.5,6,Russ Brandon,Copperas Cove,75.75,158.76,90.72,183.7,433.18,Single-ply,SBD,M
Boys,82.5,7,Robert Nicholas,Killeen Ellison,79.56,163.29,83.91,181.44,428.64,Single-ply,SBD,M
Boys,82.5,8,Fabian Garcia,Waco,80.2,142.88,90.72,185.97,419.57,Single-ply,SBD,M
Boys,82.5,9,Shontez Simmons,Copperas Cove,79.11,158.76,79.38,176.9,415.04,Single-ply,SBD,M
Boys,82.5,10,Joe Shuler,Belton,79.83,163.29,90.72,158.76,412.77,Single-ply,SBD,M
Boys,82.5,11,Daniel Ford,Waco Midway,79.02,124.74,83.91,129.27,337.93,Single-ply,SBD,M
Boys,82.5,DQ,Dalvin Fillmore,Temple,,,,,,Single-ply,SBD,M
Boys,82.5,DQ,Anthony Jackson,Temple,,,,,,Single-ply,SBD,M
Boys,82.5,DQ,Miguel Hernandez,Belton,75.3,122.47,83.91,149.69,,Single-ply,SBD,M
Boys,82.5,DQ,Garet Douglas,Killeen Ellison,,,,,,Single-ply,SBD,M
Boys,82.5,DQ,Keaton Kaulfus,Belton,80.74,142.88,,,,Single-ply,SBD,M
Boys,82.5,DQ,Devin Taylor,Copperas Cove,81.47,,,,,Single-ply,SBD,M
Boys,90,1,Dwain Richie,Waco,86.64,229.06,113.4,242.67,585.13,Single-ply,SBD,M
Boys,90,2,Teondre Parsons,Waco University,83.1,181.44,131.54,195.04,508.02,Single-ply,SBD,M
Boys,90,3,Garrett Roeder,Cameron Yoe,83.91,181.44,113.4,206.38,501.22,Single-ply,SBD,M
Boys,90,4,Tim Edwards,Copperas Cove,84.19,181.44,111.13,201.85,494.42,Single-ply,SBD,M
Boys,90,5,Terry Murphy,Waco University,83.1,190.51,113.4,183.7,487.61,Single-ply,SBD,M
Boys,90,6,Jawaun Howard,Belton,88.45,183.7,120.2,174.63,478.54,Single-ply,SBD,M
Boys,90,7,John Santos,Cameron Yoe,85.91,172.37,111.13,192.78,476.27,Single-ply,SBD,M
Boys,90,8,Gelico Green,Waco,87.82,170.1,102.06,204.12,476.27,Single-ply,SBD,M
Boys,90,9,Mitchell Dunahoo,Belton,85.87,183.7,108.86,181.44,474,Single-ply,SBD,M
Boys,90,10,Justin Buuck,Belton,88.45,165.56,117.93,185.97,469.47,Single-ply,SBD,M
Boys,90,11,Bailey Eicknloff,Belton,85.28,179.17,92.99,158.76,430.91,Single-ply,SBD,M
Boys,90,12,Edward Eakin,Killeen Ellison,84.1,136.08,79.38,204.12,419.57,Single-ply,SBD,M
Boys,90,13,Jakob Mitchell,Waco,86,136.08,104.33,170.1,410.5,Single-ply,SBD,M
Boys,90,14,Chris Hooper,Temple,84.73,129.27,83.91,181.44,394.63,Single-ply,SBD,M
Boys,90,15,John Flores,Waco Midway,85.37,124.74,72.57,138.35,335.66,Single-ply,SBD,M
Boys,90,16,Troy Trevor,Copperas Cove,84.37,124.74,,,124.74,Single-ply,S,M
Boys,90,DQ,Randy Schoolcraft,Belton,89.58,156.49,86.18,140.61,,Single-ply,SBD,M
Boys,90,DQ,Elijah Muhammad,Waco University,,,,,,Single-ply,SBD,M
Boys,90,DQ,Will Howard,Temple,82.92,,,,,Single-ply,SBD,M
Boys,100,1,Jerry Leyba,Belton,98.43,256.28,147.42,254.01,657.71,Single-ply,SBD,M
Boys,100,2,Ashad Matthews,Temple,96.71,192.78,151.95,181.44,526.17,Single-ply,SBD,M
Boys,100,3,Aubrey Kelly,Killeen Ellison,95.62,192.78,97.52,226.8,517.1,Single-ply,SBD,M
Boys,100,4,James Evans,Waco,94.44,183.7,106.59,219.99,510.29,Single-ply,SBD,M
Boys,100,5,Timothy Egans,Copperas Cove,91.35,174.63,88.45,199.58,462.66,Single-ply,SBD,M
Boys,100,6,Michael Griego,Gatesville,93.98,172.37,108.86,181.44,462.66,Single-ply,SBD,M
Boys,100,7,Cody Hidalgo,Copperas Cove,92.9,185.97,95.25,167.83,449.06,Single-ply,SBD,M
Boys,100,8,Kristofer Melgar,Killeen Ellison,91.63,158.76,97.52,181.44,437.72,Single-ply,SBD,M
Boys,100,9,Xavier White,Temple,98.97,170.1,102.06,158.76,430.91,Single-ply,SBD,M
Boys,100,10,Connor Laughren,Gatesville,93.62,170.1,92.99,158.76,421.84,Single-ply,SBD,M
Boys,100,11,Garrett Orange,Belton,92.53,165.56,88.45,165.56,419.57,Single-ply,SBD,M
Boys,100,12,Zephaniah Johnson,Waco University,99.79,149.69,86.18,181.44,417.3,Single-ply,SBD,M
Boys,100,13,Brandon Simmons,Copperas Cove,92.71,151.95,95.25,149.69,396.89,Single-ply,SBD,M
Boys,100,14,Dominque Lewis,Cameron Yoe,90.63,147.42,95.25,149.69,392.36,Single-ply,SBD,M
Boys,100,15,Henry Lamm,Waco Midway,94.35,147.42,74.84,161.03,383.29,Single-ply,SBD,M
Boys,100,16,Andrew Bullock,Waco Midway,90.54,145.15,88.45,147.42,381.02,Single-ply,SBD,M
Boys,100,17,Tytan Gosset,Copperas Cove,97.61,136.08,99.79,117.93,353.8,Single-ply,SBD,M
Boys,100,DQ,James Sandoval,Belton,99.79,136.08,88.45,133.81,,Single-ply,SBD,M
Boys,100,DQ,Jazerian Faulkner,Temple,,,,,,Single-ply,SBD,M
Boys,110,1,Arturo Jaimes,Belton,105.32,249.48,145.15,272.16,666.78,Single-ply,SBD,M
Boys,110,2,Carnealus Manning,Waco,107.32,238.14,136.08,226.8,601.01,Single-ply,SBD,M
Boys,110,3,Emilo Cortez,Belton,106.64,226.8,142.88,183.7,553.38,Single-ply,SBD,M
Boys,110,4,Veshawn Shellman,Killeen Ellison,108.59,183.7,106.59,226.8,517.1,Single-ply,SBD,M
Boys,110,5,Jesse Flores,Temple,106.87,181.44,115.67,181.44,478.54,Single-ply,SBD,M
Boys,110,6,Jacob Snoddy,Gatesville,105.14,151.95,115.67,172.37,439.98,Single-ply,SBD,M
Boys,110,7,Antares Gillespie,Killeen Ellison,105.41,129.27,102.06,204.12,435.45,Single-ply,SBD,M
Boys,110,8,Jordan Banda,Waco,109.77,176.9,102.06,151.95,430.91,Single-ply,SBD,M
Boys,110,9,Zakary Richards,Waco Midway,108.77,147.42,86.18,142.88,376.48,Single-ply,SBD,M
Boys,110,10,John Montemayor,Waco Midway,107.41,133.81,90.72,124.74,349.27,Single-ply,SBD,M
Boys,110,11,Daniel Phillips,Waco Midway,102.42,111.13,92.99,129.27,333.39,Single-ply,SBD,M
Boys,110,12,Quincy White,Waco,104.69,111.13,65.77,124.74,301.64,Single-ply,SBD,M
Boys,125,1,Dortavious Lewis,Cameron Yoe,117.93,258.55,151.95,217.72,628.23,Single-ply,SBD,M
Boys,125,2,Will Drake,Belton,123.92,240.4,117.93,229.06,587.4,Single-ply,SBD,M
Boys,125,3,Jim Hitchcock,Gatesville,118.48,219.99,131.54,204.12,555.65,Single-ply,SBD,M
Boys,125,4,Josh Childres,Temple,111.95,195.04,108.86,226.8,530.7,Single-ply,SBD,M
Boys,125,5,Cory Ebron,Waco,113.04,204.12,133.81,188.24,526.17,Single-ply,SBD,M
Boys,125,6,Tracy Linton,Waco University,123.51,183.7,140.61,170.1,494.42,Single-ply,SBD,M
Boys,125,7,Sidney Sherwood,Belton,119.88,201.85,124.74,149.69,476.27,Single-ply,SBD,M
Boys,125,8,Mason Camacho,Temple,121.47,181.44,92.99,183.7,458.13,Single-ply,SBD,M
Boys,125,9,Ryan Laumond,Copperas Cove,120.02,167.83,104.33,149.69,421.84,Single-ply,SBD,M
Boys,125,10,Zarek Roberts,Killeen Ellison,112.49,149.69,106.59,158.76,415.04,Single-ply,SBD,M
Boys,125,11,Tj Franklin,Temple,114.03,115.67,115.67,181.44,412.77,Single-ply,SBD,M
Boys,125,12,Wyatt Tackett,Gatesville,120.66,156.49,97.52,149.69,403.7,Single-ply,SBD,M
Boys,125,DQ,Cairi Chansler,Gatesville,,,,,,Single-ply,SBD,M
Boys,125,DQ,Tre Colbert,Temple,,,,,,Single-ply,SBD,M
Boys,125,DQ,Ricardo Maldonado,Waco University,,,,,,Single-ply,SBD,M
Boys,125,DQ,Chase Mclaughlin,Belton,117.12,102.06,70.31,136.08,,Single-ply,SBD,M
Boys,125+,1,La'Daidreain Glasker,Waco,130.73,229.06,140.61,242.67,612.35,Single-ply,SBD,M
Boys,125+,2,Adrian Lewis,Cameron Yoe,136.98,235.87,156.49,204.12,596.47,Single-ply,SBD,M
Boys,125+,3,Keith Jackson II,Killeen Ellison,165.11,238.14,129.27,215.46,582.87,Single-ply,SBD,M
Boys,125+,4,Phillip Haskins,Temple,132.36,204.12,147.42,226.8,578.33,Single-ply,SBD,M
Boys,125+,5,Khalil Glasker,Waco,133.45,222.26,127.01,215.46,564.72,Single-ply,SBD,M
Boys,125+,6,Josh Echeverria,Waco Midway,130,163.29,90.72,163.29,417.3,Single-ply,SBD,M
Boys,125+,7,Chapman Rowe,Killeen Ellison,134.54,145.15,97.52,174.63,417.3,Single-ply,SBD,M
Boys,125+,8,Colton Sherwood,Copperas Cove,129.55,129.27,74.84,138.35,342.46,Single-ply,SBD,M
Boys,125+,9,Robert Ursua,Waco Midway,129.27,113.4,70.31,124.74,308.44,Single-ply,SBD,M
Boys,125+,10,Zachary Mellinger,Waco Midway,130.63,149.69,79.38,,229.06,Single-ply,SB,M
Boys,125+,DQ,Chris Cabral,Waco Midway,,,,,,Single-ply,SBD,M
Boys,125+,DQ,Jordan Sharp,Waco Midway,,,,,,Single-ply,SBD,M
Boys,125+,DQ,Clancy Lawhorn,Gatesville,,,,,,Single-ply,SBD,M
Boys,125+,DQ,Treshion Bryant,Waco University,,,,,,Single-ply,SBD,M
Boys,125+,DQ,Chris Brown,Belton,171.55,154.22,,,,Single-ply,SBD,M
