Name,CyrillicName,Sex,Division,BirthYear,WeightClassKg,BodyweightKg,Squat1Kg,Squat2Kg,Squat3Kg,Best3SquatKg,Bench1Kg,Bench2Kg,Bench3Kg,Best3BenchKg,Deadlift1Kg,Deadlift2Kg,Deadlift3Kg,Best3DeadliftKg,TotalKg,Event,Equipment,Place
Kseniya Pogorelova,Ксения Погорелова,F,Open,1989,52,50.9,-95,-95,95,95,42.5,47.5,-50,47.5,110,127.5,,127.5,270,SBD,Raw,1
Andrey Popkov,Андрей Попков,M,Open,1982,82.5,76.5,-130,135,145,145,90,97.5,102.5,102.5,130,140,150,150,397.5,SBD,Raw,3
Aleksandr Ognevoy,Александр Огневой,M,Juniors,1996,140,131.9,135,145,150,150,-80,90,-95,90,140,150,160,160,400,SBD,Raw,1
Grisha Enokyan,Гриша Енокян,M,Open,1991,67.5,62.4,110,120,130,130,90,100,,100,150,160,170,170,400,SBD,Raw,1
Nikita Cherepanov,Никита Черепанов,M,Open,1991,82.5,77.35,140,150,-160,150,-110,110,-115,110,160,180,190,190,450,SBD,Raw,2
Aleksey Kurnosov,Алексей Курносов,M,Open,1983,75,73.2,-160,160,-170,160,115,120,125,125,170,180,185,185,470,SBD,Raw,2
Sergey Khorkov,Сергей Хорьков,M,Open,1989,75,75,170,180,-190,180,90,100,,100,-180,190,200,200,480,SBD,Raw,1
Vadim Vasilakiy,Вадим Василакий,M,Open,1984,82.5,76.55,160,170,-180,170,110,-120,-120,110,190,200,-210,200,480,SBD,Raw,1
Vadim Ognevoy,Вадим Огневой,M,Masters,1961,125,112.6,-230,230,-240,230,120,130,140,140,230,240,,240,610,SBD,Raw,1
Yuriy Babintsev,Юрий Бабинцев,M,Open,,90,85.25,150,-160,165,165,100,105,-110,105,160,170,175,175,445,SBD,Raw,6
Aleksandr Bondaryanskiy,Александр Бондарянский,M,Open,,100,92.75,145,155,160,160,105,110,115,115,160,170,-180,170,445,SBD,Raw,2
Aleksey Zinyagin,Алексей Зинягин,M,Open,,90,87.45,-170,180,-190,180,110,117.5,-122.5,117.5,170,-180,180,180,477.5,SBD,Raw,4
Vadim Martynov,Вадим Мартынов,M,Open,,90,86.7,170,205,215,215,115,122.5,130,130,170,190,200,200,545,SBD,Raw,3
Mikhail Savushkin,Михаил Савушкин,M,Open,,90,89.2,-160,-170,170,170,120,127.5,-132.5,127.5,180,-202.5,-202.5,180,477.5,SBD,Raw,5
Aleksandr Slavin,Александр Славин,M,Open,,110,100.65,180,190,-200,190,150,-160,-160,150,180,200,210,210,550,SBD,Raw,2
Sergey Leonov,Сергей Леонов,M,Open,,110,103.5,190,200,205,205,135,142.5,147.5,147.5,190,205,210,210,562.5,SBD,Raw,1
Yuriy Gadzhibalaev,Юрий Гаджибалаев,M,Open,,90,87.75,-220,220,225,225,155,-160,160,160,220,230,-240,230,615,SBD,Raw,2
Valeriy Beloglazov,Валерий Белоглазов,M,Open,,90,88.1,210,-220,220,220,145,155,-165,155,230,240,245,245,620,SBD,Raw,1
Andrey Sergeev,Андрей Сергеев,M,Open,,125,124.1,240,250,260,260,165,175,180,180,240,250,260,260,700,SBD,Raw,1
Nikolay Fesanyuk,Николай Фесанюк,M,Open,,100,94.25,250,265,275,275,150,160,165,165,-280,280,295,295,735,SBD,Raw,1
Anton Yashchuk,Антон Ящук,M,Open,,100,93.25,-180,,,,,,,,,,,,,SBD,Raw,DQ
Irina Rodionova,Ирина Родионова,F,Open,,44,42.5,,,,,30,32.5,35,35,,,,,35,B,Raw,1
Olga Sittsova,Ольга Ситцова,F,Open,1982,52,51,,,,,40,45,47.5,47.5,,,,,47.5,B,Raw,1
Aleksandra Sycheva,Александра Сычева,F,Open,1991,67.5,63,,,,,40,45,-50,45,,,,,45,B,Raw,1
Vladislav Sannikov,Владислав Санников,M,Masters,1938,82.5,77.5,,,,,80,87.5,90,90,,,,,90,B,Raw,1
Marina Paleva,Марина Палева,F,Open,1985,90,86,,,,,90,-100,-100,90,,,,,90,B,Raw,1
Sergey Kokorev,Сергей Кокорев,M,Open,1980,75,72,,,,,-105,110,115,115,,,,,115,B,Raw,2
Aleksandr Naumov,Александр Наумов,M,Open,1979,75,71.85,,,,,110,117.5,125,125,,,,,125,B,Raw,1
Nikolay Kuznetsov,Николай Кузнецов,M,Open,1994,90,85,,,,,120,130,140,140,,,,,140,B,Raw,2
Egor Konstantinov,Егор Константинов,M,Open,1989,100,98,,,,,130,140,-155,140,,,,,140,B,Raw,2
Konstantin Konstantinov,Константин Константинов,M,Open,1978,110,103,,,,,140,150,160,160,,,,,160,B,Raw,2
Sergey Chikin,Сергей Чикин,M,Open,1979,90,87,,,,,155,160,165,165,,,,,165,B,Raw,1
Aleksandr Bykov,Александр Быков,M,Open,1974,125,113,,,,,160,-170,175,175,,,,,175,B,Raw,2
Aleksey Gavshin,Алексей Гавшин,M,Open,1978,110,108.5,,,,,160,170,177.5,177.5,,,,,177.5,B,Raw,1
Dmitry Shvedov-Viardo,Дмитрий Шведов-Виардо,M,Open,1968,125,118.5,,,,,170,180,-190,180,,,,,180,B,Raw,1
Denis Gurinov,Денис Гуринов,M,Open,1989,100,97,,,,,185,195,200,200,,,,,200,B,Raw,1
Aleksandr Naumov,Александр Наумов,M,Open,,125+,149.9,,,,,185,200,212.5,212.5,,,,,212.5,B,Raw,1
Vasiliy Tsvetkov,Василий Цветков,M,Pro,1981,75,73.2,230,245,255,255,140,155,162.5,162.5,215,235,-262.5,235,652.5,SBD,Raw,1
Ivan Dmitriev,Иван Дмитриев,M,Pro,1970,90,89.5,250,265,275,275,175,185,-190,185,300,315,,315,775,SBD,Raw,1
Kamo Simonyan,Камо Симонян,M,Pro,1971,125,114.5,310,340,360,360,210,220,225,225,310,325,340,340,925,SBD,Raw,1
Evgeniy Lapunov,Евгений Лапунов,M,Pro,1973,100,99,,,,,180,195,-200,195,,,,,195,B,Raw,1
Andrey Grudkin,Андрей Грудкин,M,Pro,1984,125,113.5,,,,,-185,195,205,205,,,,,205,B,Raw,1
Petr Selivanov,Петр Селиванов,M,Pro,1970,90,89.1,,,,,200,205,-210,205,,,,,205,B,Raw,1
Mikhail Slezkin,Михаил Слезкин,M,Pro,1975,125,115,,,,,-210,-210,,,,,,,,B,Raw,DQ
Sergey Popov,Сергей Попов,M,Pro,1977,110,103,,,,,210,220,-225,220,,,,,220,B,Raw,2
Dmitriy Tenetko,Дмитрий Тенетко,M,Pro,1975,110,109,,,,,210,225,240,240,,,,,240,B,Raw,1
Sergey Zenkin,Сергей Зенкин,M,Pro,1976,125+,129,,,,,220,240,-255,240,,,,,240,B,Raw,1
