Division,WeightClassKg,Place,Name,Team,BodyweightKg,Best3SquatKg,Best3BenchKg,Best3DeadliftKg,TotalKg,Equipment,Event,Sex
Boys,52,1,Anthony Garcia,Weslaco,51.07,147.42,97.52,174.63,419.57,Single-ply,SBD,M
Boys,52,DQ,Diego Gonzalez,Mercedes,50.62,,,,,Single-ply,SBD,M
Boys,56,2,Joshua Martinez,Hidalgo Early College,51.94,104.33,63.5,131.54,299.37,Single-ply,SBD,M
Boys,56,3,Ivan Tafolla,Weslaco,52.98,115.67,58.97,136.08,310.71,Single-ply,SBD,M
Boys,56,3,Joshua Del Angel,McAllen Rowe,51.94,104.33,63.5,117.93,285.76,Single-ply,SBD,M
Boys,56,4,Ethan Plantilla,Mission Sharyland,54.34,92.99,36.29,117.93,247.21,Single-ply,SBD,M
Boys,56,5,Ruben Sanez III,McAllen Rowe,53.16,74.84,49.9,88.45,213.19,Single-ply,SBD,M
Boys,56,DQ,Jacskon Littles,Edinburg Idea College Prep,51.8,70.31,,,,Single-ply,SBD,M
Boys,56,DQ,Ivan Perez,Edinburg Idea College Prep,54.34,,,,,Single-ply,SBD,M
Boys,60,1,Mike Barajas,Hidalgo Early College,56.02,174.63,113.4,170.1,458.13,Single-ply,SBD,M
Boys,60,2,JJ Ortiz,Los Fresnos,55.97,149.69,102.06,172.37,424.11,Single-ply,SBD,M
Boys,60,2,Vicente Hernandez,Pharr Valley View,59.74,215.46,120.2,208.65,544.31,Single-ply,SBD,M
Boys,60,3,Mauro Vargas,La Joya Juarez-Lincoln,56.34,176.9,113.4,174.63,464.93,Single-ply,SBD,M
Boys,60,4,Alex Zapata,Rio Hondo,58.79,176.9,102.06,176.9,455.86,Single-ply,SBD,M
Boys,60,5,Alex Gonzalez,PSJA North,59.42,149.69,97.52,181.44,428.64,Single-ply,SBD,M
Boys,60,6,Damien Palomo,Weslaco,58.69,154.22,81.65,181.44,417.3,Single-ply,SBD,M
Boys,60,7,Esmerejildo Cano,Edinburg,57.24,165.56,97.52,147.42,410.5,Single-ply,SBD,M
Boys,60,8,Abraham Hernandez,La Joya Palmview,58.24,161.03,79.38,170.1,410.5,Single-ply,SBD,M
Boys,60,9,John Gonzalez,Edcouch-Elsa,59.87,163.29,97.52,149.69,410.5,Single-ply,SBD,M
Boys,60,10,Esai Marez,Mission Sharyland,59.87,140.61,83.91,167.83,392.36,Single-ply,SBD,M
Boys,60,11,Austin Weise,McAllen Rowe,59.06,113.4,95.25,161.03,369.68,Single-ply,SBD,M
Boys,60,12,Brian Tejada,Edinburg,56.88,104.33,70.31,108.86,283.5,Single-ply,SBD,M
Boys,60,13,Abel Marquez,Mission Veterans Memorial,57.52,70.31,56.7,106.59,233.6,Single-ply,SBD,M
Boys,67.5,1,Juan Rivera,Los Fresnos,59.96,195.04,136.08,233.6,564.72,Single-ply,SBD,M
Boys,67.5,2,Heliseo Guerrero,Rio Hondo,65.23,215.46,129.27,233.6,578.33,Single-ply,SBD,M
Boys,67.5,3,Oscar Monjaraz,Pharr Valley View,66,224.53,108.86,226.8,560.19,Single-ply,SBD,M
Boys,67.5,5,Jorge Cavazos,Mercedes,67.13,179.17,122.47,188.24,489.88,Single-ply,SBD,M
Boys,67.5,6,Alec Gonzalez,Mercedes,67.13,183.7,99.79,197.31,480.81,Single-ply,SBD,M
Boys,67.5,7,Coy Burrows,Sharyland Pioneer,64.14,174.63,102.06,156.49,433.18,Single-ply,SBD,M
Boys,67.5,8,Demetrio Guerrero,Edinburg,62.69,133.81,102.06,151.95,387.82,Single-ply,SBD,M
Boys,67.5,9,Richard Nunez,Hidalgo Early College,66.04,136.08,92.99,156.49,385.55,Single-ply,SBD,M
Boys,67.5,10,Albert Valle,Hidalgo Early College,60.96,138.35,95.25,149.69,383.29,Single-ply,SBD,M
Boys,67.5,11,Anthony de Leon,Edinburg Quest College Prep,66.22,124.74,72.57,183.7,381.02,Single-ply,SBD,M
Boys,67.5,12,Bryan Rodriguez,La Joya Juarez-Lincoln,61.14,145.15,83.91,145.15,374.21,Single-ply,SBD,M
Boys,67.5,13,Alejandro Sanchez,Edinburg,66.32,131.54,90.72,149.69,371.95,Single-ply,SBD,M
Boys,67.5,16,Joshua De Leon,Edinburg Quest College Prep,64.68,136.08,68.04,156.49,360.61,Single-ply,SBD,M
Boys,67.5,17,Jacob Jimenez,Edinburg Quest College Prep,67.13,102.06,63.5,136.08,301.64,Single-ply,SBD,M
Boys,67.5,18,Denilson Guenarra,PSJA North,61.87,108.86,61.23,124.74,294.84,Single-ply,SBD,M
Boys,67.5,19,Justin Garza,Rio Grande City,65.23,104.33,61.23,113.4,278.96,Single-ply,SBD,M
Boys,67.5,20,Crespin Salazar,Edinburg,62.41,79.38,79.38,102.06,260.82,Single-ply,SBD,M
Boys,67.5,DQ,Leo Cullar,Pharr Valley View,66.68,124.74,,,,Single-ply,SBD,M
Boys,67.5,DQ,Rogelio Gonzalez,Edinburg Idea College Prep,59.96,102.06,,,,Single-ply,SBD,M
Boys,75,1,Alan Alfaro,Rio Hondo,67.22,204.12,131.54,249.48,585.13,Single-ply,SBD,M
Boys,75,1,Jacob Gracia,Weslaco,73.3,238.14,129.27,229.06,596.47,Single-ply,SBD,M
Boys,75,2,Julian Flores,Rio Hondo,70.4,219.99,147.42,226.8,594.21,Single-ply,SBD,M
Boys,75,3,Gilbert Guajardo,Pharr Valley View,74.62,238.14,131.54,219.99,589.67,Single-ply,SBD,M
Boys,75,4,Frank Marin,Weslaco,70.58,199.58,120.2,210.92,530.7,Single-ply,SBD,M
Boys,75,4,Homer Gonzalez,La Feria,67.22,206.38,142.88,210.92,560.19,Single-ply,SBD,M
Boys,75,5,John Salazar,Los Fresnos,71.49,170.1,111.13,213.19,494.42,Single-ply,SBD,M
Boys,75,6,Julio Cerda,Sharyland Pioneer,68.58,183.7,127.01,181.44,492.15,Single-ply,SBD,M
Boys,75,7,Marky Fonseca,Los Fresnos,73.3,174.63,113.4,199.58,487.61,Single-ply,SBD,M
Boys,75,8,Ronnie Longoria,Sharyland Pioneer,71.12,179.17,97.52,201.85,478.54,Single-ply,SBD,M
Boys,75,9,Eric Hinojosa,Mercedes,74.66,174.63,113.4,188.24,476.27,Single-ply,SBD,M
Boys,75,10,Shehryar Khursheed,Edinburg Quest College Prep,70.85,142.88,102.06,210.92,455.86,Single-ply,SBD,M
Boys,75,11,Dominic Ramos,Rio Hondo,69.58,165.56,115.67,167.83,449.06,Single-ply,SBD,M
Boys,75,12,Aaron Acevedo,La Joya,70.85,147.42,83.91,142.88,374.21,Single-ply,SBD,M
Boys,75,13,Brandon Alle,McAllen Rowe,70.67,127.01,92.99,147.42,367.41,Single-ply,SBD,M
Boys,75,14,Diego Silva,McAllen Rowe,67.36,136.08,86.18,147.42,369.68,Single-ply,SBD,M
Boys,75,14,David Belland,Edinburg Idea College Prep,71.85,102.06,72.57,136.08,310.71,Single-ply,SBD,M
Boys,75,15,Xavier Ramirez,La Joya,67.36,138.35,86.18,142.88,367.41,Single-ply,SBD,M
Boys,75,DQ,Brandon Mireles,Mission Sharyland,74.75,147.42,79.38,,,Single-ply,SBD,M
Boys,82.5,1,Rigo Ayala,Edcouch-Elsa,81.65,258.55,147.42,244.94,650.91,Single-ply,SBD,M
Boys,82.5,2,Robert Hernandez,La Joya Juarez-Lincoln,80.2,240.4,151.95,254.01,646.37,Single-ply,SBD,M
Boys,82.5,3,Fabian Rodriguez,Los Fresnos,80.92,238.14,147.42,249.48,635.03,Single-ply,SBD,M
Boys,82.5,4,Salvador Castillo,Mission Sharyland,80.29,229.06,124.74,251.74,605.55,Single-ply,SBD,M
Boys,82.5,5,Daniel Flores,Rio Hondo,81.1,238.14,142.88,222.26,603.28,Single-ply,SBD,M
Boys,82.5,6,Alexis Perez,Sharyland Pioneer,80.01,208.65,149.69,224.53,582.87,Single-ply,SBD,M
Boys,82.5,8,Javier Elizondo,Mission Sharyland,80.74,183.7,147.42,201.85,532.97,Single-ply,SBD,M
Boys,82.5,9,Andrew Cantu,Mission Sharyland,81.28,199.58,111.13,201.85,512.56,Single-ply,SBD,M
Boys,82.5,10,Michael Gonzalez,Weslaco,81.74,195.04,120.2,188.24,503.49,Single-ply,SBD,M
Boys,82.5,11,Bryan Leal,Weslaco,82.01,192.78,127.01,183.7,503.49,Single-ply,SBD,M
Boys,82.5,12,Brandon Perez,La Feria,75.39,167.83,113.4,190.51,471.74,Single-ply,SBD,M
Boys,82.5,13,Javier Bernal,La Joya,75.98,197.31,102.06,149.69,449.06,Single-ply,SBD,M
Boys,82.5,14,Norberto Vasquez,La Joya,80.92,142.88,124.74,170.1,437.72,Single-ply,SBD,M
Boys,82.5,15,James Champion,Edinburg,75.48,163.29,102.06,149.69,415.04,Single-ply,SBD,M
Boys,82.5,16,Jesse Garza,Edcouch-Elsa,82.1,158.76,99.79,149.69,408.23,Single-ply,SBD,M
Boys,82.5,17,Ismael Gonzalez,Sharyland Pioneer,75.66,149.69,90.72,165.56,405.97,Single-ply,SBD,M
Boys,82.5,18,Mauro Arrieta,Edinburg,77.75,124.74,86.18,156.49,367.41,Single-ply,SBD,M
Boys,82.5,19,Andrew Lozano,Edinburg Quest College Prep,77.2,136.08,68.04,161.03,365.14,Single-ply,SBD,M
Boys,82.5,20,Alfredo Perez,La Joya,76.38,127.01,81.65,147.42,356.07,Single-ply,SBD,M
Boys,82.5,21,Michael Morales,McAllen Rowe,79.65,108.86,86.18,124.74,319.78,Single-ply,SBD,M
Boys,82.5,DQ,Joshua Trevino,Edinburg,82.1,156.49,,,,Single-ply,SBD,M
Boys,82.5,DQ,Josue Sanchez,Mission,80.65,,,,,Single-ply,SBD,M
Boys,82.5,DQ,Julian Rodriguez,Edinburg Idea College Prep,78.93,,,,,Single-ply,SBD,M
Boys,90,1,Seth Garcia,Edcouch-Elsa,88.9,272.16,158.76,267.62,698.53,Single-ply,SBD,M
Boys,90,2,Luis Salinas,Sharyland Pioneer,88.99,242.67,147.42,244.94,635.03,Single-ply,SBD,M
Boys,90,4,Elias Munoz,Edcouch-Elsa,85.82,240.4,142.88,235.87,619.15,Single-ply,SBD,M
Boys,90,5,Jose Nicolaue,Sharyland Pioneer,89.54,222.26,158.76,231.33,612.35,Single-ply,SBD,M
Boys,90,6,Obie Hernandez,Sharyland Pioneer,89.36,238.14,142.88,224.53,605.55,Single-ply,SBD,M
Boys,90,7,Peter Quiroz,Hidalgo Early College,82.33,183.7,136.08,222.26,542.04,Single-ply,SBD,M
Boys,90,7,Angel Rodríguez,Rio Hondo,87.36,215.46,124.74,206.38,546.58,Single-ply,SBD,M
Boys,90,9,Isaac Aleman,Hidalgo Early College,89.45,204.12,115.67,213.19,532.97,Single-ply,SBD,M
Boys,90,10,Ernesto Preciado,Pharr Valley View,88.45,190.51,129.27,204.12,523.9,Single-ply,SBD,M
Boys,90,11,Javier Sanchez,Weslaco,84.82,183.7,131.54,201.85,517.1,Single-ply,SBD,M
Boys,90,12,Eddie Hernandez,La Joya Juarez-Lincoln,89.09,195.04,124.74,188.24,508.02,Single-ply,SBD,M
Boys,90,13,Bryan Smith,Mercedes,86.55,181.44,122.47,181.44,485.34,Single-ply,SBD,M
Boys,90,14,Nathan Hernandez,McAllen Rowe,89.18,167.83,127.01,190.51,485.34,Single-ply,SBD,M
Boys,90,15,José Saldaña,La Feria,84.46,188.24,106.59,174.63,469.47,Single-ply,SBD,M
Boys,90,16,Nicolas Hinojosa,La Joya,84.28,158.76,115.67,183.7,458.13,Single-ply,SBD,M
Boys,90,17,Salvador Mendoza,La Feria,87.72,188.24,92.99,174.63,455.86,Single-ply,SBD,M
Boys,90,18,David Garza,PSJA North,89.63,170.1,108.86,174.63,453.59,Single-ply,SBD,M
Boys,90,19,Arturo Alvarado,La Feria,87.72,176.9,92.99,158.76,428.64,Single-ply,SBD,M
Boys,90,20,Jorge Sierra,Edinburg,89.81,158.76,113.4,156.49,428.64,Single-ply,SBD,M
Boys,90,21,Freddy Lozano,La Feria,86.09,145.15,102.06,145.15,392.36,Single-ply,SBD,M
Boys,90,22,Diego Alvarez,Mission Sharyland,83.19,133.81,56.7,183.7,374.21,Single-ply,SBD,M
Boys,90,23,Ryan Alvarez,Rio Grande City,83.01,111.13,90.72,149.69,351.53,Single-ply,SBD,M
Boys,90,24,Uriel Aguilera,Pharr Valley View,89.58,113.4,58.97,151.95,324.32,Single-ply,SBD,M
Boys,90,25,Osvaldo Garcia,Mission Veterans Memorial,88.9,124.74,70.31,124.74,319.78,Single-ply,SBD,M
Boys,90,DQ,Gaston Castellanos,Rio Hondo,83.01,197.31,,,,Single-ply,SBD,M
Boys,90,DQ,Jonathan Gomez,La Joya,83.91,188.24,97.52,,,Single-ply,SBD,M
Boys,100,2,Elijah Sanchez,Edcouch-Elsa,95.62,260.82,174.63,240.4,675.85,Single-ply,SBD,M
Boys,100,3,Julio Garcia,La Joya Juarez-Lincoln,89.99,240.4,158.76,233.6,632.76,Single-ply,SBD,M
Boys,100,4,Fernando Hernandez,La Joya Juarez-Lincoln,90.9,222.26,151.95,238.14,612.35,Single-ply,SBD,M
Boys,100,5,Steven de Leon,Mission,92.53,226.8,127.01,226.8,580.6,Single-ply,SBD,M
Boys,100,6,Daniel Villarreal,La Joya,92.8,226.8,127.01,219.99,573.79,Single-ply,SBD,M
Boys,100,7,Joseph Rios,Mission,94.71,210.92,147.42,204.12,562.45,Single-ply,SBD,M
Boys,100,8,Daniel Gonzalez,La Joya Juarez-Lincoln,97.34,204.12,131.54,226.8,562.45,Single-ply,SBD,M
Boys,100,8,Juan Cuellar,Edinburg,89.99,199.58,142.88,195.04,537.51,Single-ply,SBD,M
Boys,100,9,Juan Delgado,Rio Hondo,98.52,204.12,138.35,199.58,542.04,Single-ply,SBD,M
Boys,100,10,Norby Fuentes,Edcouch-Elsa,99.79,215.46,147.42,174.63,537.51,Single-ply,SBD,M
Boys,100,11,Gilbert Romero,La Joya Juarez-Lincoln,95.98,204.12,124.74,204.12,532.97,Single-ply,SBD,M
Boys,100,13,Fernando Castro,Hidalgo Early College,98.79,197.31,127.01,197.31,521.63,Single-ply,SBD,M
Boys,100,14,David Cantu,Mission Sharyland,93.53,215.46,124.74,170.1,510.29,Single-ply,SBD,M
Boys,100,15,Marcelino Robledo,Edinburg,98.25,192.78,122.47,183.7,498.95,Single-ply,SBD,M
Boys,100,16,Javier De La Torre,Rio Grande City,98.88,170.1,108.86,192.78,471.74,Single-ply,SBD,M
Boys,100,17,Gerry Briones,PSJA North,97.7,163.29,113.4,174.63,451.32,Single-ply,SBD,M
Boys,100,18,Sergio Valdes,McAllen Rowe,98.88,147.42,113.4,181.44,442.25,Single-ply,SBD,M
Boys,100,19,Caleb Longoria,Rio Grande City,99.16,151.95,108.86,172.37,433.18,Single-ply,SBD,M
Boys,100,20,Joshua Williams,Mission Sharyland,96.52,163.29,90.72,163.29,417.3,Single-ply,SBD,M
Boys,100,21,Anthony Rodriguez,Edinburg,97.52,142.88,108.86,149.69,401.43,Single-ply,SBD,M
Boys,100,22,Mike Cavasos,Mission Veterans Memorial,91.17,142.88,83.91,158.76,385.55,Single-ply,SBD,M
Boys,100,DQ,Joel Moreno,Mission Sharyland,92.71,195.04,120.2,,,Single-ply,SBD,M
Boys,100,DQ,Angel Gutierrez,Pharr Valley View,91.63,145.15,,,,Single-ply,SBD,M
Boys,100,DQ,Jacob Martinez,Rio Hondo,97.98,,,,,Single-ply,SBD,M
Boys,100,DQ,Jason Munoz,Edcouch-Elsa,99.79,201.85,,,,Single-ply,SBD,M
Boys,100,DQ,Frank Fernandez,Edinburg Idea College Prep,96.71,136.08,,,,Single-ply,SBD,M
Boys,100,DQ,Said Aleman,Hidalgo Early College,94.44,,,,,Single-ply,SBD,M
Boys,100,DQ,Eddie Garza,Rio Grande City,91.53,140.61,111.13,,,Single-ply,SBD,M
Boys,110,1,Eddie Gomez,Edcouch-Elsa,108.14,278.96,145.15,263.08,687.19,Single-ply,SBD,M
Boys,110,1,Fernando Gonzalez,La Joya Palmview,99.97,292.57,151.95,240.4,684.92,Single-ply,SBD,M
Boys,110,2,Freddy Martinez,Los Fresnos,109.59,247.21,183.7,226.8,657.71,Single-ply,SBD,M
Boys,110,3,Jesus Ramos,Hidalgo Early College,99.88,267.62,161.03,229.06,657.71,Single-ply,SBD,M
Boys,110,4,Gerald Salinas,Edcouch-Elsa,103.87,219.99,147.42,226.8,594.21,Single-ply,SBD,M
Boys,110,5,Andy Zuniga,PSJA North,109.5,224.53,129.27,195.04,548.85,Single-ply,SBD,M
Boys,110,6,Luis Salinas,Rio Grande City,108.86,185.97,127.01,222.26,535.24,Single-ply,SBD,M
Boys,110,7,Alfredo Valdez,Edinburg,101.7,185.97,131.54,215.46,532.97,Single-ply,SBD,M
Boys,110,8,Alan Hernandez,McAllen Rowe,108.77,190.51,133.81,204.12,528.44,Single-ply,SBD,M
Boys,110,9,Juan Diaz,Edinburg,103.96,195.04,131.54,190.51,517.1,Single-ply,SBD,M
Boys,110,10,Aliver Chapa,La Joya Juarez-Lincoln,106.5,195.04,133.81,188.24,517.1,Single-ply,SBD,M
Boys,110,11,Albert Canales,La Joya,106.14,183.7,122.47,176.9,483.08,Single-ply,SBD,M
Boys,110,12,Hiram Chavez,McAllen Rowe,102.6,136.08,106.59,149.69,392.36,Single-ply,SBD,M
Boys,110,12,Elizar Rodriguez,Weslaco,99.88,210.92,131.54,188.24,530.7,Single-ply,SBD,M
Boys,110,13,Axel Hernandez,Mission Veterans Memorial,100.43,142.88,79.38,149.69,371.95,Single-ply,SBD,M
Boys,110,14,Adrian Meza,Mission Veterans Memorial,106.32,147.42,74.84,133.81,356.07,Single-ply,SBD,M
Boys,110,DQ,Ty Ryner,Rio Hondo,102.06,183.7,,,,Single-ply,SBD,M
Boys,110,DQ,Sam Rodriguez,La Joya,106.23,256.28,151.95,,,Single-ply,SBD,M
Boys,125,1,Julio Contreras,Edcouch-Elsa,121.56,340.19,165.56,294.84,800.59,Single-ply,SBD,M
Boys,125,3,Ricky Estimbo,Edcouch-Elsa,120.84,272.16,142.88,226.8,641.83,Single-ply,SBD,M
Boys,125,3,Zeke Gutierrez,Mission,109.95,283.5,120.2,219.99,623.69,Single-ply,SBD,M
Boys,125,4,Christian Ozuna,La Joya Juarez-Lincoln,113.94,217.72,133.81,199.58,551.11,Single-ply,SBD,M
Boys,125,5,Jose Carrilo,Edinburg,123.74,201.85,136.08,210.92,548.85,Single-ply,SBD,M
Boys,125,6,Jesus Proa,La Joya Juarez-Lincoln,115.21,195.04,142.88,208.65,546.58,Single-ply,SBD,M
Boys,125,7,Arturo Guevara,La Feria,113.94,176.9,111.13,181.44,469.47,Single-ply,SBD,M
Boys,125,8,Gabriel Ortiz,Mission,112.85,188.24,83.91,176.9,449.06,Single-ply,SBD,M
Boys,125,9,Fernando Robles,Rio Grande City,116.21,163.29,90.72,192.78,446.79,Single-ply,SBD,M
Boys,125,10,Enrique Guajardo,Pharr Valley View,113.4,149.69,88.45,165.56,403.7,Single-ply,SBD,M
Boys,125,DQ,Dustin Valdez,Mercedes,118.75,,,,,Single-ply,SBD,M
Boys,125,DQ,Roger Benavidez,Rio Grande City,120.75,,,,,Single-ply,SBD,M
Boys,125+,1,Michael Vega,McAllen Rowe,129.73,251.74,165.56,204.12,621.42,Single-ply,SBD,M
Boys,125,2,Andres Hernandez,La Joya Palmview,124.92,256.28,167.83,226.8,650.91,Single-ply,SBD,M
Boys,125+,2,Gabriel Cardona,Weslaco,126.78,217.72,154.22,208.65,580.6,Single-ply,SBD,M
Boys,125+,3,Jamie Morin,Rio Grande City,127.1,226.8,138.35,197.31,562.45,Single-ply,SBD,M
Boys,125+,4,Brandon Perez,Weslaco,157.94,272.16,156.49,,428.64,Single-ply,SB,M
Boys,125+,DQ,Daniel Melendez,Mercedes,133.17,,,,,Single-ply,SBD,M
