Sex,WeightClassKg,Name,Division,Team,BodyweightKg,Best3SquatKg,Best3BenchKg,Best3DeadliftKg,TotalKg,Place,Equipment,Event
M,75,Owen Hubbard,U18,WAL,,215,130,210,555,1,Single-ply,SBD
M,75,Chris Bright,Guest,WM,,155,90,185,430,G,Single-ply,SBD
M,75,Philip Richard,Open,WAL,74.3,220,202.5,235,657.5,1,Single-ply,SBD
M,82.5,Timothy Joseph Keane,U18,WAL,,180,90,190,460,1,Single-ply,SBD
M,90,Domonic Avo,M4,WAL,,150,102.5,102.5,355,1,Single-ply,SBD
M,100,Steven Bright,Guest,WM,,250,,260,,DQ,Single-ply,SBD
M,100,Michael Richard Saunders,M1,WAL,,200,150,230,580,1,Single-ply,SBD
M,100,John Mitchell,Guest,WM,100,320,180,280,780,G,Single-ply,SBD
M,82.5,Matthew Hart,Snr,,,,127.5,,127.5,1,Single-ply,B
