Place,WeightClassKg,Name,Equipment,Team,BodyweightKg,Squat1Kg,Squat2Kg,Squat3Kg,Best3SquatKg,Bench1Kg,Bench2Kg,Bench3Kg,Best3BenchKg,Deadlift1Kg,Deadlift2Kg,Deadlift3Kg,Best3DeadliftKg,TotalKg,Division,Sex,Event
1,57,Silje Nyborg Jensen,Raw,Tromsø Atletklubb,55.80,85,92.5,100,100.0,57.5,62.5,67.5,67.5,90,100,107.5,107.5,275,Junior 19-23,F,SBD
1,72,Tine-Karoline Fermann Thorbjørnsen,Raw,Tromsø Atletklubb,66.55,85,92.5,97.5,97.5,-55,60,65,65.0,110,120,-127.5,120.0,282.5,Open,F,SBD
1,57,Hege Henriksen Bubandt,Raw,Tromsø Atletklubb,54.00,87.5,,,87.5,45,,,45.0,107.5,,,107.5,240,Master 50-59,F,SBD
1,93,Storm Martinussen,Raw,Tromsø Atletklubb,92.95,150,160,170,170.0,-130,140,-145,140.0,205,-220,-225,205.0,515,Teen 14-18,M,SBD
1,105,Petter Winnem,Raw,Tromsø Atletklubb,103.75,180,195,-200,195.0,130,135,-140,135.0,200,-215,215,215.0,545,Teen 14-18,M,SBD
1,83,Trond Arne Bråten Isaksen,Raw,Tromsø Atletklubb,82.15,180,192.5,195,195.0,115,-125,127.5,127.5,210,-225,235,235.0,557.5,Open,M,SBD
2,83,Simen Brinck Hansen,Raw,Tromsø Atletklubb,74.50,147.5,152.5,-160,152.5,107.5,112.5,117.5,117.5,175,185,192.5,192.5,462.5,Open,M,SBD
