Place,Name,State,WeightClassKg,BodyweightKg,Age,Best3SquatKg,Best3BenchKg,Best3DeadliftKg,TotalKg,Sex,Division,Equipment,Event
1,Melissa Sterling,TX,56,55,23,132.5,67.5,145,345,F,Junior 20-23,Raw,SBD
2,Anaiza Cano,TX,56,55.8,23,112.5,57.5,142.5,312.5,F,Junior 20-23,Raw,SBD
3,Samantha Schepps,TX,56,55.8,20,82.5,52.5,127.5,262.5,F,Junior 20-23,Raw,SBD
1,Sarah Martinez-Garcia,TX,60,59.9,20,85,47.5,107.5,240,F,Junior 20-23,Raw,SBD
1,Bailey Jensen,TX,67.5,63.2,17,97.5,45,122.5,265,F,Junior 16-17,Raw,SBD
1,Hannah Helder,TX,67.5,66.8,21,140,82.5,165,387.5,F,Junior 20-23,Raw,SBD
2,Amanda Ramirez,TX,67.5,64.7,23,110,62.5,147.5,320,F,Junior 20-23,Raw,SBD
3,Alexandra Peek,TX,67.5,63.4,22,102.5,65,122.5,290,F,Junior 20-23,Raw,SBD
4,Jacqueline Hernandez,TX,67.5,66.1,21,105,55,127.5,287.5,F,Junior 20-23,Raw,SBD
DQ,Mireya Quintana,TX,67.5,67,20,120,-57.5,,,F,Junior 20-23,Raw,SBD
1,Amanda Vogt,TX,75,70.3,23,120,67.5,155,342.5,F,Junior 20-23,Raw,SBD
1,Cierra Laxton,TX,82.5,80.4,22,132.5,85,200,417.5,F,Junior 20-23,Raw,SBD
1,Thanh Tam Nguyen #1,TX,48,45.6,27,112.5,42.5,102.5,257.5,F,Open,Raw,SBD
1,Eric Mercado,TX,52,51.4,22,105,47.5,140,292.5,F,Open,Raw,SBD
2,Yessnia Martinez,TX,52,51.5,30,92.5,47.6,112.5,252.6,F,Open,Raw,SBD
1,Melissa Sterling,TX,56,55,23,132.5,67.5,145,345,F,Open,Raw,SBD
2,Denise Marquez,TX,56,56,24,115,62.5,140,317.5,F,Open,Raw,SBD
1,Nicole Gonzalez,TX,60,59.9,32,186,97.5,197.5,481,F,Open,Raw,SBD
2,Alice Ramirez,TX,60,59.2,24,87.5,57.5,137.5,282.5,F,Open,Raw,SBD
3,Amanda Ornelas,TX,60,59.5,30,67.5,35,92.5,195,F,Open,Raw,SBD
1,Noelia Corona-Terry,TX,67.5,66.4,33,162.5,112.5,170,445,F,Open,Raw,SBD
2,Heather Giffiths,TX,67.5,64.6,26,115,67.5,147.5,330,F,Open,Raw,SBD
3,Bailey Jensen,TX,67.5,63.2,17,97.5,45,122.5,265,F,Open,Raw,SBD
1,Teresa Gonzalez,TX,75,75,31,152.5,82.5,177.5,412.5,F,Open,Raw,SBD
2,Anastacia Cantu,TX,75,70,25,130,77.5,137.5,345,F,Open,Raw,SBD
3,Laura Rumpf,TX,75,71.8,40,110,62.5,137.5,310,F,Open,Raw,SBD
4,Nadia Gonzalez,TX,75,75,25,57.5,35,102.5,195,F,Open,Raw,SBD
1,Loran Dominguez,TX,82.5,80.8,24,115,77.5,162.5,355,F,Open,Raw,SBD
1,Clarissa Archer,TX,90,89.6,25,142.5,70,147.5,360,F,Open,Raw,SBD
1,Jacqueline Lucio,TX,90+,94.3,34,90,67.5,125,282.5,F,Open,Raw,SBD
DQ,Meicha Hardeman,TX,90+,111,36,-120,,,,F,Open,Raw,SBD
1,Melissa Garza,TX,75,73.1,39,120,70,142.5,332.5,F,Submaster 35-39,Raw,SBD
1,Jessica Marren,TX,67.5,65.7,36,82.5,55,110,247.5,F,Submaster 35-39,Raw,SBD
DQ,Meicha Hardeman,TX,90+,111,36,-120,,,,F,Submaster 35-39,Raw,SBD
1,Loraine Efron,TX,60,59.4,52,82.5,40,97.5,220,F,Master 50-54,Raw,SBD
1,Tina Collins,TX,82.5,78.9,47,130,80,155,365,F,Master 45-49,Raw,SBD
1,Jose Romero,TX,60,59.8,21,145,97.5,187.5,430,M,Junior 20-23,Raw,SBD
1,David Figueroa,TX,67.5,64.9,18,150,72.5,172.5,395,M,Junior 18-19,Raw,SBD
1,Zulkifl Gire,TX,67.5,64.4,21,150,100,185,435,M,Junior 20-23,Raw,SBD
1,Pablo Barrera,TX,75,72.8,20,115,62.5,157.5,335,M,Junior 20-23,Raw,SBD
DQ,Michael Elizondo,TX,75,73.3,22,-180,,,,M,Junior 20-23,Raw,SBD
1,Johnson Thai,TX,82.5,82.4,23,235,142.5,237.5,615,M,Junior 20-23,Raw,SBD
2,Justin Villegas,TX,82.5,79.7,20,200,145,227.5,572.5,M,Junior 20-23,Raw,SBD
3,Austin Burnett,TX,82.5,80.8,22,177.5,130,250,557.5,M,Junior 20-23,Raw,SBD
4,Jahaziel Ortega,TX,82.5,76.3,22,155,102.5,220,477.5,M,Junior 20-23,Raw,SBD
1,Antonio Rivas,TX,100,97.8,18,217.5,107.5,207.5,532.5,M,Junior 18-19,Raw,SBD
1,Preston Hale,TX,110,104.3,19,192.5,142.5,237.5,572.5,M,Junior 18-19,Raw,SBD
2,Richard Herrera,TX,110,107.6,18,185,142.5,230,557.5,M,Junior 18-19,Raw,SBD
1,James Martinez,TX,110,109.9,22,250,160,280,690,M,Junior 20-23,Raw,SBD
1,Jose Elias,TX,140,132,21,272.5,195,327.5,795,M,Junior 20-23,Raw,SBD
1,Seth Daigre,TX,56,54.5,25,120,82.5,182.5,385,M,Open,Raw,SBD
1,Melton Morehead,TX,67.5,67.1,39,195,115,235,545,M,Open,Raw,SBD
1,De'Marcus Williams,TX,75,74.9,31,215,115,285,615,M,Open,Raw,SBD
2,Jeffrey Winkler,TX,75,69.5,31,167.5,142.5,207.5,517.5,M,Open,Raw,SBD
3,Ricky Velez,TX,75,72.6,26,117.5,75,185,377.5,M,Open,Raw,SBD
DQ,Hector Garza,TX,75,74.04,27,182.5,145,-182.5,,M,Open,Raw,SBD
1,David Isenberg,TX,82.5,81.6,25,250,205,290,745,M,Open,Raw,SBD
2,Andy Cavanagh,TX,82.5,82,41,185,125,252.5,562.5,M,Open,Raw,SBD
1,Ben Pollack,TX,90,89,28,320,182.5,363,865.5,M,Open,Raw,SBD
2,Coy Schneider,TX,90,83.2,30,250,162.5,287.5,700,M,Open,Raw,SBD
3,Justin Parsons,TX,90,88.3,31,205,175,222.5,602.5,M,Open,Raw,SBD
DQ,Blair Longmire,TX,100,98,30,-227.5,,,,M,Open,Raw,SBD
1,Robert Lopez III,TX,100,96.8,26,240,145,262.5,647.5,M,Open,Raw,SBD
2,Irving Acosta,TX,100,97,28,200,127.5,227.5,555,M,Open,Raw,SBD
3,Jesse De Leon,TX,100,97.8,34,135,145,140,420,M,Open,Raw,SBD
1,Armando Carreon,TX,110,109.6,27,325,210,300,835,M,Open,Raw,SBD
2,Aaron Halydier,TX,110,107.4,24,215,152.5,255,622.5,M,Open,Raw,SBD
3,Justin Richardson,TX,110,107.6,27,145,110,185,440,M,Open,Raw,SBD
1,Michael Kratz,TX,125,119.5,34,237.5,175,260,672.5,M,Open,Raw,SBD
2,Gilbert Lujan,TX,125,114,31,227.5,137.5,242.5,607.5,M,Open,Raw,SBD
1,Charles Grimsley,TX,140,132.9,25,292.5,182.5,315,790,M,Open,Raw,SBD
1,Melton Morehead,TX,67.5,67.1,39,195,115,235,545,M,Submaster 35-39,Raw,SBD
1,James Marren,TX,90,87.1,36,170,125,187.5,482.5,M,Submaster 35-39,Raw,SBD
1,Rene Maldonado,TX,110,104.1,37,215,182.5,240,637.5,M,Submaster 35-39,Raw,SBD
2,Zachary Phillips,TX,110,107.8,36,192.5,147.5,260,600,M,Submaster 35-39,Raw,SBD
1,Brian Connolly,TX,125,119.3,35,215,172.5,242.5,630,M,Submaster 35-39,Raw,SBD
2,Austen Horton,TX,125,113.9,39,212.5,117.5,237.5,567.5,M,Submaster 35-39,Raw,SBD
1,Charles King,TX,75,73.3,52,157.5,135,185,477.5,M,Master 50-54,Raw,SBD
1,Andy Cavanagh,TX,82.5,82,41,185,125,252.5,562.5,M,Master 40-44,Raw,SBD
1,Joe Perez,TX,82.5,82.2,45,185,125,207.5,517.5,M,Master 45-49,Raw,SBD
1,Mike Reid,TX,82.5,80.6,50,175,120,200,495,M,Master 50-54,Raw,SBD
1,Harvey Pendleton,TX,90,87.1,69,112.5,77.5,185,375,M,Master 65-69,Raw,SBD
1,Sean Berry,TX,125,122.5,43,265,145,285,695,M,Master 40-44,Raw,SBD
1,Monica Gonzalez,TX,82.5,80.6,20,157.5,62.5,162.5,382.5,F,Junior 20-23,Wraps,SBD
1,Ashley Benavides,TX,90,89.8,23,140,82.5,167.5,390,F,Junior 20-23,Wraps,SBD
1,Sonia Rosembaum,TX,60,60,27,175,85,180,440,F,Open,Wraps,SBD
1,Krista Kharazi,TX,67.5,67.5,27,120,70,157.5,347.5,F,Open,Wraps,SBD
DQ,Roselyn Wilson,TX,82.5,80.7,34,-137.5,60,155,,F,Open,Wraps,SBD
1,Chakera Holcomb,TX,90,89.6,21,237.5,145,255,637.5,F,Open,Wraps,SBD
1,Brittney Lerma,TX,90+,105.8,24,192.5,92.5,227.5,512.5,F,Open,Wraps,SBD
1,Jessica Salazar,TX,75,70.8,38,107.5,45,140,292.5,F,Submaster 35-39,Wraps,SBD
1,Hilda Ramirez,TX,75,75,43,155,60,145,360,F,Master 40-44,Wraps,SBD
1,Laura Facundo,TX,75,72.9,45,120,72.5,160,352.5,F,Master 45-49,Wraps,SBD
1,Eric Tong,TX,75,70.3,17,217.5,102.5,227.5,547.5,M,Junior 16-17,Wraps,SBD
1,Javier Cruz,TX,90,88.6,20,252.5,150,295,697.5,M,Junior 20-23,Wraps,SBD
1,Enrique Lugo,TX,125,118.9,19,317.5,220,325,862.5,M,Junior 18-19,Wraps,SBD
2,Josue Garzori,TX,125,123.8,19,295,185,310,790,M,Junior 18-19,Wraps,SBD
1,Fernando Flores,TX,125,117,21,275,175,277.5,727.5,M,Junior 20-23,Wraps,SBD
1,Ceasr Trindad,TX,67.5,60.7,22,152.5,87.5,177.5,417.5,M,Open,Wraps,SBD
1,Kris Richard,TX,82.5,81.6,33,237.5,142.5,272.5,652.5,M,Open,Wraps,SBD
DQ,Rodney McClanahan,TX,82.5,81.3,30,-247.5,,,,M,Open,Wraps,SBD
1,Jason Ryan,TX,90,89.2,28,210,132.5,250,592.5,M,Open,Wraps,SBD
1,Mitch Ward,TX,100,99.7,31,227.5,150,267.5,645,M,Open,Wraps,SBD
1,Ismael Hernandez,TX,110,104.3,36,272.5,195,280,747.5,M,Open,Wraps,SBD
2,Kenneth Pospisil,TX,110,105.7,37,237.5,155,237.5,630,M,Open,Wraps,SBD
3,Ruben Garcia,TX,110,104.3,25,207.5,130,227.5,565,M,Open,Wraps,SBD
1,Enrique Lugo,TX,125,118.9,19,317.5,220,325,862.5,M,Open,Wraps,SBD
2,Nicholas Aviles,TX,125,115.7,24,317.5,185,300,802.5,M,Open,Wraps,SBD
3,D.J. Holcomb,TX,125,119.4,35,267.5,190,282.5,740,M,Open,Wraps,SBD
4,Sebastian Velasquez,TX,125,121.1,25,250,162.5,242.5,655,M,Open,Wraps,SBD
DQ,Matthew Barba,TX,125,123.9,27,-287.5,287.5,,,M,Open,Wraps,SBD
1,Richard Saxton,TX,140,137.5,38,247.5,182.5,272.5,702.5,M,Open,Wraps,SBD
1,Eduardo Vasquez,TX,140+,157.5,26,250,187.5,265,702.5,M,Open,Wraps,SBD
1,Ismael Hernandez,TX,110,104.3,36,272.5,195,280,747.5,M,Submaster 35-39,Wraps,SBD
2,Kenneth Pospisil,TX,110,105.7,37,237.5,155,237.5,630,M,Submaster 35-39,Wraps,SBD
1,Isaac Martinez,TX,125,120.2,37,250,210,250,710,M,Submaster 35-39,Wraps,SBD
1,Richard Saxton,TX,140,137.8,38,247.5,182.5,272.5,702.5,M,Submaster 35-39,Wraps,SBD
1,James Thompson,TX,75,71.4,74,87.5,72.5,112.5,272.5,M,Master 70-74,Wraps,SBD
1,Tim Searles,TX,110,107.2,46,212.5,152.5,247.5,612.5,M,Master 45-49,Wraps,SBD
1,James Neuman,TX,140,131.5,41,160,145,185,490,M,Master 40-44,Raw,SBD
1,Calie Chesler,TX,60,59.6,18,165,75.5,155.5,396,F,Junior 18-19,Single-ply,SBD
DQ,Kassie Bohot,TX,75,74.9,27,195,-130,167.5,,F,Open,Single-ply,SBD
DQ,Mackenzie Dcokens,TX,110,100.1,19,227.5,-185,,,M,Junior 18-19,Single-ply,SBD
1,Adam McMullen,TX,75,73.8,27,210,125,212.5,547.5,M,Open,Single-ply,SBD
1,Bryce Bohot,TX,100,98.3,28,340,272.5,282.5,895,M,Open,Single-ply,SBD
2,Jon Marshall,AZ,100,96.6,42,262.5,190,255,707.5,M,Open,Single-ply,SBD
DQ,Cody Knebel,TX,125,123.8,33,-392.5,285,310,,M,Open,Single-ply,SBD
DQ,Erick Baker,TX,110,109.7,37,320,-220,300,,M,Submaster 35-39,Single-ply,SBD
1,Alice Ramirez,TX,60,59.1,24,,57.5,,57.5,F,Open,Raw,B
1,Leah Russell,TX,67.5,67.5,25,,70,,70,F,Open,Raw,B
1,Amanda Parsons,TX,75,70.8,31,,75,,75,F,Open,Raw,B
1,Jessica De Hoyos,TX,90,85.6,32,,82.5,,82.5,F,Open,Raw,B
1,Deborah Guerra,TX,67.5,63.2,51,,50,,50,F,Master 50-54,Raw,B
1,Pablo Barrera,TX,75,72.8,20,,62.5,,62.5,M,Junior 20-23,Raw,B
1,Jeffery Winkler,TX,82.5,81,36,,142.5,,142.5,M,Open,Raw,B
1,Cody Knebel,TX,125,123.8,33,,285,,285,M,Open,Single-ply,B
1,Mike Settles,TX,82.5,81.8,71,,152.5,,152.5,M,Master 70-74,Single-ply,B
1,Jay K Simmions,TX,125,123.2,56,,220,,220,M,Master 55-59,Single-ply,B
1,William Lee,TX,125,124.1,35,,275,,275,M,Open,Multi-ply,B
1,William Lee,TX,125,124.1,35,,275,,275,M,Submaster 35-39,Multi-ply,B
1,Alice Ramirez,TX,60,59.2,24,,,137.5,137.5,F,Open,Raw,D
1,Sharylee Barbe,TX,90,89.2,60,,,105,105,F,Open,Raw,D
1,Sharylee Barbe,TX,90,89.2,60,,,105,105,F,Master 60-64,Raw,D
1,Pablo Barrera,TX,75,72.8,20,,,157.5,157.5,M,Junior 20-23,Raw,D
1,Cody Knebel,TX,125,123.8,33,,,310,310,M,Open,Single-ply,D
