Sex,Equipment,Division,WeightClassKg,Name,BodyweightKg,Best3SquatKg,Squat4Kg,Best3BenchKg,Bench4Kg,Best3DeadliftKg,Deadlift4Kg,TotalKg,Event,Place
F,Raw,Amateur Junior 20-23,52,Kristen Obolsky,50.89,72.57,,27.22,,81.65,,181.44,SBD,1
F,Raw,Amateur Open,52,Natalie Vera,51.89,77.11,,52.16,,83.91,,213.19,SBD,1
F,Single-ply,Amateur Teen 16-17,60,Jen Rivers,59.51,83.91,,56.7,,108.86,,249.48,SBD,1
F,Single-ply,Amateur Teen 16-17,67.5,Danielle Ross,62.14,108.86,,70.31,,122.47,,301.64,SBD,1
F,Raw,Amateur Open,67.5,Darlene Mercer,64.5,81.65,,49.9,,124.74,,256.28,SBD,1
M,Single-ply,Amateur Teen 16-17,52,AJ Baletto,51.35,131.54,,88.45,,136.08,,356.07,SBD,1
M,Wraps,Amateur Teen 14-15,56,Mark Menniti,53.61,83.91,,61.23,,124.74,,269.89,SBD,1
M,Single-ply,Amateur Teen 14-15,60,Austin Baletto,57.52,136.08,,88.45,,161.03,,385.55,SBD,1
M,Single-ply,Amateur Teen 14-15,60,Tom Dinardo,59.15,129.27,,92.99,,161.03,,383.29,SBD,2
M,Single-ply,Amateur Teen 16-17,60,Anthony Feta,58.97,147.42,,97.52,,174.63,,419.57,SBD,1
M,Raw,Amateur Teen 18-19,67.5,Christopher Camenares,62.78,131.54,,95.25,,195.04,,421.84,SBD,1
M,Raw,Amateur Teen 16-17,75,James Witanek,69.22,127.01,,77.11,,181.44,,385.55,SBD,1
M,Single-ply,Amateur Teen 16-17,75,Taylor Applegate,72.39,172.37,,115.67,,204.12,,492.15,SBD,1
M,Single-ply,Amateur Teen 18-19,75,Anthony Mastrandrea,73.94,176.9,,138.35,,174.63,,489.88,SBD,1
M,Single-ply,Amateur Teen 16-17,82.5,Chris Krutunik,80.74,183.7,,129.27,,204.12,,517.1,SBD,1
M,Single-ply,Amateur Teen 18-19,82.5,Kevin Malachefski,79.74,176.9,,124.74,,208.65,,510.29,SBD,1
M,Multi-ply,Amateur Teen 18-19,100,Nate Tamura,93.62,229.06,,127.01,,215.46,,571.53,SBD,1
M,Raw,Amateur Teen 18-19,100,Chris Estevez,98.61,163.29,,120.2,,217.72,,501.22,SBD,1
M,Wraps,Amateur Teen 18-19,100,Amor Srdanovic,97.98,195.04,,140.61,,249.48,,585.13,SBD,1
M,Raw,Amateur Junior 20-23,67.5,Maxwell Lemos,67.36,136.08,,108.86,,170.1,,415.04,SBD,1
M,Multi-ply,Amateur Junior 20-23,75,Lance Klaassen,74.39,254.01,,149.69,,233.6,,637.3,SBD,1
M,Raw,Amateur Junior 20-23,82.5,Jon Goncalves,82.1,192.78,,124.74,,226.8,,544.31,SBD,1
M,Raw,Amateur Junior 20-23,90,Andrew Dobbins,88.81,163.29,,122.47,,201.85,,487.61,SBD,1
M,Multi-ply,Amateur Junior 20-23,90,Jon Diffenderfer,84.82,229.06,,120.2,,226.8,,576.06,SBD,1
M,Multi-ply,Amateur Junior 20-23,90,Steven Rizzo,87.36,204.12,,136.08,,179.17,,519.36,SBD,2
M,Raw,Amateur Junior 20-23,100,Andrew Rispoli,94.98,190.51,,120.2,,254.01,,564.72,SBD,1
M,Wraps,Amateur Junior 20-23,110,Mike Skiba,106.32,240.4,,149.69,,238.14,,628.23,SBD,1
M,Wraps,Amateur Junior 20-23,110,Jim McAdoo,109.5,217.72,,138.35,,226.8,,582.87,SBD,2
M,Wraps,Amateur Master 50-54,100,Rory King,99.43,238.14,,108.86,,231.33,,578.33,SBD,1
F,Multi-ply,Pro Open,82.5,Jessica Scofield,76.2,219.99,,124.74,,229.06,233.6,573.79,SBD,1
F,Wraps,Pro Open,82.5,Deniz Odar,80.83,165.56,,113.4,,183.7,,462.66,SBD,1
F,Wraps,Pro Master 45-49,82.5,Deniz Odar,80.83,165.56,,113.4,,183.7,,462.66,SBD,1
M,Wraps,Amateur Open,75,Glenn Norcross,74.96,,,,,,,,SBD,DQ
M,Multi-ply,Elite Open,75,Michael Kemper Jr,74.3,285.76,,165.56,,278.96,,730.28,SBD,1
M,Raw,Amateur Master 50-54,75,Steve Cusack,73.75,151.95,,97.52,,215.46,,464.93,SBD,1
M,Raw,Amateur Open,82.5,David Cauchon,81.19,195.04,,129.27,,226.8,,551.11,SBD,1
M,Raw,Amateur Open,82.5,Jason Budsock,82.28,183.7,,120.2,,231.33,,535.24,SBD,2
M,Raw,Amateur Open,82.5,Mark Luehring-Jones,82.37,174.63,,120.2,,235.87,,530.7,SBD,3
M,Raw,Amateur Open,82.5,Richard Baker,80.74,142.88,,92.99,,183.7,,419.57,SBD,6
M,Raw,Amateur Open,82.5,Edwin Vera,82.19,181.44,,127.01,,217.72,,526.17,SBD,4
M,Raw,Amateur Open,82.5,James Colleary,81.28,170.1,,140.61,,204.12,,514.83,SBD,5
M,Raw,Pro Open,82.5,Michael Gerardi,81.1,226.8,,174.63,,,,,SBD,DQ
M,Raw,Amateur Open,90,Derrick Benjamin,87.18,174.63,,147.42,,249.48,,571.53,SBD,1
M,Raw,Amateur Submaster,90,Derrick Benjamin,87.18,174.63,,147.42,,249.48,,571.53,SBD,1
M,Wraps,Amateur Open,90,Mark Cauchon,89.36,210.92,,117.93,,226.8,,555.65,SBD,1
M,Wraps,Amateur Open,90,Jason Hagy,89.9,195.04,,127.01,,222.26,,544.31,SBD,2
M,Wraps,Police Amateur Open,90,Jason Hagy,89.9,195.04,,127.01,,222.26,,544.31,SBD,1
M,Wraps,Pro Open,90,Jason Oreallana,88.18,238.14,,158.76,,240.4,,637.3,SBD,1
M,Multi-ply,Amateur Open,90,David Kilhefner,88.45,265.35,,117.93,,240.4,,623.69,SBD,1
M,Multi-ply,Pro Open,90,Mike Romeo,86.45,290.3,,204.12,,276.69,,771.11,SBD,1
M,Raw,Amateur Open,100,Eric Schwartz,95.16,195.04,,147.42,,226.8,,569.26,SBD,1
M,Raw,Amateur Open,100,Adam Harchetts,98.61,192.78,,147.42,,219.99,,560.19,SBD,2
M,Raw,Amateur Open,100,Aamir Syed,92.44,170.1,,117.93,,244.94,,532.97,SBD,3
M,Raw,Amateur Master 40-44,100,Eric Schwartz,95.16,195.04,,147.42,,226.8,,569.26,SBD,1
M,Raw,Amateur Submaster,100,Jonathan Shluker,99.88,167.83,,149.69,,199.58,,517.1,SBD,1
M,Raw,Police Amateur Open,100,Jonathan Shluker,99.88,167.83,,149.69,,199.58,,517.1,SBD,1
M,Raw,Pro Master 50-54,100,Lenny Creatura,97.98,278.96,,165.56,,274.42,,718.94,SBD,1
M,Wraps,Amateur Open,100,Christian Coronato,98.34,231.33,,174.63,183.7,272.16,,678.12,SBD,1
M,Wraps,Amateur Open,100,Yaniv Meirovitch,99.9,235.87,244.94,154.22,,283.5,,673.58,SBD,2
M,Wraps,Pro Open,100,Adam Pine,96.71,215.46,,138.35,,256.28,,610.08,SBD,1
M,Multi-ply,Police Amateur Open,100,Tommy Kemble,99.25,,,,,,,,SBD,DQ
M,Raw,Amateur Open,110,Anthony Esquerdo,108.95,226.8,,158.76,,258.55,,644.1,SBD,1
M,Raw,Amateur Open,110,Joe Bernard,108.23,206.38,,,,,,,SBD,DQ
M,Raw,Amateur Junior 20-23,110,Anthony Esquerdo,108.95,226.8,,158.76,,258.55,,644.1,SBD,1
M,Wraps,Pro Open,110,Jeffrey Blajda,108.59,301.64,,167.83,,276.69,,746.16,SBD,1
M,Wraps,Pro Open,110,Glenn DiGiorgio,102.06,249.48,,165.56,,249.48,,664.51,SBD,2
M,Wraps,Amateur Open,110,Erik Bonini,108.59,199.58,,131.54,,229.06,,560.19,SBD,1
M,Wraps,Amateur Open,110,Jason Sclar,108.14,213.19,,115.67,,183.7,,512.56,SBD,2
M,Wraps,Amateur Open,110,Joseph Reyes,105.14,176.9,,108.86,,192.78,,478.54,SBD,3
M,Raw,Pro Junior 20-23,125,Jonathan Zeng,114.03,192.78,,172.37,,260.82,,625.96,SBD,1
M,Raw,Amateur Open,125,Greg Santarsiero,112.4,226.8,,188.24,,233.6,,648.64,SBD,1
M,Raw,Amateur Master 55-59,125,James Maguire,111.67,136.08,,122.47,,142.88,,401.43,SBD,1
M,Wraps,Amateur Open,125,Benjamin Kyle Dewig,119.39,226.8,,124.74,,272.16,,623.69,SBD,1
M,Wraps,Pro Junior 20-23,125,Isaac Zeng,122.2,317.51,328.85,195.04,,324.32,,836.88,SBD,1
M,Wraps,Pro Open,125,Isaac Zeng,122.2,317.51,328.85,195.04,,324.32,,836.88,SBD,1
M,Wraps,Pro Open,125,Tim Gale,120.02,319.78,,206.38,,290.3,,816.47,SBD,2
M,Wraps,Amateur Master 65-69,125,Carmine D'Argenio,124.74,217.72,,129.27,,192.78,,539.77,SBD,1
M,Multi-ply,Pro Open,125,Anthony Ditillo,118.48,349.27,,294.84,,297.1,,941.2,SBD,1
M,Raw,Amateur Open,140,Erik Eggers,129.64,226.8,,208.65,,254.01,,689.46,SBD,1
M,Raw,Amateur Open,140,JJ Wydra,130.91,226.8,,,,,,,SBD,DQ
M,Raw,Amateur Master 40-44,140,Erik Eggers,129.64,226.8,,208.65,,254.01,,689.46,SBD,1
M,Wraps,Pro Open,140,Harley Davidson,134.54,288.03,,190.51,,333.39,,811.93,SBD,1
M,Raw,Amateur Master 40-44,90,Paul Emond,89.9,,,170.1,,,,170.1,B,1
M,Multi-ply,Pro Open,100,Brian Holloway,99.79,,,238.14,,,,238.14,B,1
M,Multi-ply,Pro Open,110,Anthony McCloskey,102.33,,,263.08,,,,263.08,B,1
M,Raw,Amateur Open,125,Joseph Rybaruk Jr,119.11,,,195.04,,,,195.04,B,1
M,Raw,Amateur Open,125,Aswad Rasul Thompson,115.48,,,165.56,,,,165.56,B,2
M,Raw,Amateur Submaster,125,Joseph Rybaruk Jr,119.11,,,195.04,,,,195.04,B,1
M,Raw,Pro Open,140,Matt Rhodes,138.89,,,215.46,,,,215.46,B,1
M,Raw,Pro Open,82.5,Shay Larrisey,81.65,,,156.49,,274.42,,430.91,BD,1
M,Single-ply,Pro Open,90,Eric Kratz #1,89.09,,,229.06,,288.03,,517.1,BD,1
M,Raw,Amateur Submaster,100,John Mendez,99.52,,,145.15,,226.8,,371.95,BD,1
M,Raw,Pro Open,100,Jason Fruge,98.7,,,176.9,,267.62,,444.52,BD,1
M,Raw,Pro Open,100,Johnny Regno,96.25,,,154.22,,247.21,,401.43,BD,2
M,Multi-ply,Pro Open,110,Anthony McCloskey,102.33,,,263.08,,310.71,,573.79,BD,1
M,Multi-ply,Pro Open,110,Anthony McCloskey,102.33,,,,,310.71,,310.71,D,1
