Name,BirthDate,Age,Division,Sex,Equipment,Event,BodyweightKg,WeightClassKg,Best3SquatKg,Best3BenchKg,Best3DeadliftKg,TotalKg,Place
Allan Massie,1963-08-19,43,MM/FP(1)(40-44),M,Multi-ply,SBD,90,90,295,155,217.5,667.5,1
Mark Strickland,1966-08-23,40,MM/FP(1)(40-44),M,Multi-ply,SBD,89,90,197.5,152.5,205,555,1
Terry Buckley,1959-07-27,47,MM/FP(1)(45-49),M,Multi-ply,SBD,94.3,100,310,212.5,262.5,785,1
Tim Womack,1961-02-01,46,MM/FP(1)(45-49),M,Multi-ply,SBD,97.1,100,212.5,197.5,232.5,642.5,1
Bryan White,1959-08-01,47,MM/FP(1)(45-49),M,Multi-ply,SBD,82.4,82.5,252.5,170,220,642.5,1
Vince Breaux,1945-10-23,61,MM/FP(1)(60-64),M,Multi-ply,SBD,99.3,100,162.5,202.5,250,615,1
Rex Harrison,1947-06-25,59,MM/FP(2)(55-59),M,Multi-ply,SBD,109.2,110,230,185,260,675,1
Ted Butler,1947-01-26,60,MM/FP(2)(60-64),M,Multi-ply,SBD,97.5,100,260,160,265,685,1
Garry Frank,1964-12-20,42,MO/FP(1),M,Multi-ply,SBD,174,140+,472.5,,,,DQ
Mike Beatty,1971-12-30,35,MO/FP(1),M,Multi-ply,SBD,158.4,140+,345,255,310,910,3
Ronnie Hodge,1968-05-25,38,MO/FP(1),M,Multi-ply,SBD,151.6,140+,30,,,,DQ
Bob Phillips,1963-11-08,43,MO/FP(1),M,Multi-ply,SBD,130.5,140,365,255,302,922,2
Craig Stutes,1973-12-19,33,MO/FP(1),M,Multi-ply,SBD,128.6,140,437.5,327.5,320,1085,1
Curtis Dennis Jr,1980-03-12,27,MO/FP(1),M,Multi-ply,SBD,128,140,377.5,,,,DQ
David Brown,1983-09-03,23,MO/FP(1),M,Multi-ply,SBD,133.3,140,,227.5,307.5,,DQ
Jeff Brandon,1969-06-09,37,MO/FP(1),M,Multi-ply,SBD,137.3,140,397.5,237.5,292.5,,DQ
Jeremy McCormick,1975-05-02,31,MO/FP(1),M,Multi-ply,SBD,132.8,140,282.5,185,250,717.5,3
Paul Key,1973-12-07,33,MO/FP(1),M,Multi-ply,SBD,129.3,140,60,305,60,425,1
Darrell Hoard,1970-10-03,36,MO/FP(1),M,Multi-ply,SBD,118.4,125,387.5,285,297.5,970,1
Justin Ross,1975-01-22,32,MO/FP(1),M,Multi-ply,SBD,124.6,125,410,,275,,DQ
Mitchell Downing,1986-11-08,20,MO/FP(1),M,Multi-ply,SBD,116.6,125,260,175,247.5,682.5,3
Steve Dwelle,1985-04-20,21,MO/FP(1),M,Multi-ply,SBD,105.5,110,365,280,285,930,1
William Carter,1977-03-02,29,MO/FP(1),M,Multi-ply,SBD,106.5,110,432.5,227.5,267.5,927.5,2
Alexander Guice,1973-12-14,33,MO/FP(1),M,Multi-ply,SBD,98.5,100,250,190,250,690,3
Jason Mccracken,1976-08-31,30,MO/FP(1),M,Multi-ply,SBD,98.6,100,365,272.5,272.5,910,2
Lance Mosley,1972-09-17,34,MO/FP(1),M,Multi-ply,SBD,98,100,372.5,260,307.5,940,1
Silas Peed,1982-12-17,24,MO/FP(1),M,Multi-ply,SBD,93.4,100,232.5,185,245,662.5,4
Steven Radford,1980-01-23,27,MO/FP(1),M,Multi-ply,SBD,98.7,100,365,240,302.5,907.5,3
Allan Massie,1963-08-19,43,MO/FP(1),M,Multi-ply,SBD,90,90,295,155,217.5,667.5,3
Jude Hackett,1980-07-08,26,MO/FP(1),M,Multi-ply,SBD,86.2,90,272.5,182.5,227.5,682.5,2
Mike Bishop,1973-09-05,33,MO/FP(1),M,Multi-ply,SBD,89.8,90,250,220,250,720,1
Forrest Klein,1977-05-23,29,MO/FP(1),M,Multi-ply,SBD,73.6,75,125,142.5,205,472.5,2
Robert Blunschi,1986-04-04,20,MO/FP(1),M,Multi-ply,SBD,68.8,75,227.5,137.5,215,580,1
Chris Coaker,1972-10-25,34,MO/FP(2),M,Multi-ply,SBD,145.4,140+,320,250,300,870,1
Luke Fox,1982-01-19,25,MO/FP(2),M,Multi-ply,SBD,137.1,140,337.5,237.5,207.5,782.5,1
Chris Senese,1980-02-05,27,MO/FP(2),M,Multi-ply,SBD,113.5,125,345,320,290,955,1
John Reece,1980-09-21,21,MO/FP(2),M,Multi-ply,SBD,125,125,237.5,197.5,272.5,707.5,1
Scott Johnson,1968-08-22,38,MO/FP(2),M,Multi-ply,SBD,107.2,110,295,182.5,232.5,710,1
Keith Taylor,1977-03-23,29,MO/FP(2),M,Multi-ply,SBD,95.8,100,320,185,265,770,2
Drew Gable,1986-07-10,20,MO/FP(2),M,Multi-ply,SBD,95.8,100,292.5,205,227.5,725,1
Don Millrany,1978-03-24,28,MO/FP(2),M,Multi-ply,SBD,88.8,90,255,,,,DQ
Alexander Guice,1973-12-14,33,SM/FP(1),M,Multi-ply,SBD,98.5,100,250,190,250,690,1
Darrell Hoard,1970-10-03,36,SM/FP(1),M,Multi-ply,SBD,118.4,125,387,285,297.5,969.5,1
Rebecca Jordan,1990-04-05,16,WT/FP(2) (16-17),F,Multi-ply,SBD,95.5,90+,227.5,125,190,542.5,1
Sonya Jones,1966-02-11,41,WO/FP(2),F,Multi-ply,SBD,62.4,67.5,67.5,42.5,90,200,2
Angie Olive,1964-05-01,42,WO/FP(2),F,Multi-ply,SBD,59.6,60,107.5,70,112.5,290,1
Amber Suter,1976-09-01,30,WO/FP(1),F,Multi-ply,SBD,89,90,117.5,67.5,122.5,307.5,1
Leigh-An Jaskiewicz,1979-11-20,27,WO/FP(1),F,Multi-ply,SBD,74.8,75,165,77.5,167.5,410,1
Sonya Jones,1966-02-11,41,WM/FP(2)(40-44),F,Multi-ply,SBD,62.4,67.5,67.5,42.5,90,200,3
Angie Olive,1964-05-14,42,WM/FP(2)(40-44),F,Multi-ply,SBD,59.6,60,107.5,70,97.5,275,2
Annette Wright,1966-05-06,40,WM/FP(2)(40-44),F,Multi-ply,SBD,54.8,60,125,72.5,140,337.5,1
Cody Ward,1991-02-18,16,MT/FP(2)(16-17),M,Multi-ply,SBD,67.3,67.5,135,85,162.5,382.5,1
Robert Wilkerson,1981-04-14,25,MO/R/FP(1),M,Wraps,SBD,164.8,140+,375,265,270,910,1
Shawn Caine,1964-12-13,42,MM/R/FP(2)(40-44),M,Wraps,SBD,120.6,125,182.5,137.5,210,530,1
Tyler Duffy,1984-12-17,22,MJ/FP(1),M,Multi-ply,SBD,140.5,140+,320,142.5,282.5,745,1
Kara Bohigian-Smith,1975-04-12,31,GUEST,F,Multi-ply,SBD,67.5,67.5,242.5,187.5,190,620,G
Amber Suter,1976-09-01,30,WO/BO(1),F,Multi-ply,B,89,90,,67.5,,67.5,1
Amanda Mika,1972-01-13,35,WO/BO(1),F,Multi-ply,B,65.6,67.5,,,,,DQ
Cody Farmer,1988-01-06,19,MT/BO(1)(18-19),M,Multi-ply,B,138.1,140,,197.5,,197.5,1
Tanner Dearmon,1989-07-23,17,MT/BO(1)(16-17),M,Multi-ply,B,99.2,110,,142.5,,142.5,1
Eric Eaton,1969-04-26,37,MSM/BO(2),M,Multi-ply,B,109,110,,200,,200,1
Daryl Zuchelli,1975-07-10,31,MO/R/BO(2),M,Raw,B,90,90,,150,,150,1
Eddie Patton-Gooch,1977-03-23,29,MO/R/BO(1),M,Raw,B,66.3,67.5,,125,,125,1
Tom Moss,1971-10-20,35,MO/R/BO(1),M,Raw,B,115.1,125,,205,,205,1
Jarvis Barnes,1982-05-22,24,MO/BO(2),M,Multi-ply,B,113.5,125,,187.5,,187.5,1
Eddie Tew,1975-09-20,31,MO/BO(1),M,Multi-ply,B,120.1,125,,,,,DQ
Eric Holmbeck,1979-11-13,27,MO/BO(1),M,Multi-ply,B,110,110,,217.5,,217.5,1
John Burns,1976-09-10,30,MO/BO(1),M,Multi-ply,B,107.2,110,,,,,DQ
John Micka,1970-01-27,37,MO/BO(1),M,Multi-ply,B,134.5,140,,310,,310,1
Daryl Zuchelli,1975-07-10,31,MN/R/BO(2),M,Raw,B,90,90,,150,,150,1
Joshua Kyllo,1976-09-21,30,MN/R/BO(2),M,Raw,B,101.5,110,,122.5,,122.5,1
Mike Petras,1976-10-01,30,MN/R/BO(2),M,Raw,B,90,90,,115,,115,1
Angel David Alturet,1972-04-12,34,MN/BO(2),M,Multi-ply,B,94.4,100,,132.5,,132.5,1
Justin Tucker,1985-03-31,21,MN/BO(2),M,Multi-ply,B,83.2,90,,150,,150,1
Ricardo Pacheio,1976-10-01,34,MN/BO(2),M,Multi-ply,B,78.1,82.5,,150,,150,1
Anthony Rider,1983-02-10,24,MN/BO(1),M,Multi-ply,B,120.4,125,,250,,250,1
Shane Baker,1974-07-21,32,MN/BO(1),M,Multi-ply,B,108,110,,192.5,,192.5,1
Tim Womack,1961-02-01,46,MM/BO(2)(45-49),M,Multi-ply,B,97.1,100,,197.5,,197.5,1
Vince Breaux,1945-10-23,61,MM/BO(1),M,Multi-ply,B,99.3,100,,202.3,,202.3,1
Mike Harden,1953-12-08,53,MM/BO(1),M,Multi-ply,B,124.3,125,,240,,240,1
Daryl Zuchelli,1975-07-19,31,MJ/R/BO(2),M,Raw,B,90,90,,150,,150,1
Joe Steenberger,1985-09-26,21,MJ/BO(2),M,Multi-ply,B,74.7,75,,132.5,,132.5,1
Dean Pierce,1987-02-21,20,MJ/BO(1),M,Multi-ply,B,104.4,110,,272.5,,272.5,1
Jacob Holmbeck,1985-01-16,22,MJ/BO(1),M,Multi-ply,B,98.4,100,,187.5,,187.5,1
Christian Simmons,,31,GUESTLIFTER,M,Raw,B,,110,,260,,260,G
Gunny Green,,,GUEST,M,Multi-ply,B,,110,,,,,DQ
Mike Luckett,,,GUEST,M,Multi-ply,B,,90,,250,,250,G
Vince Breaux,1945-10-23,61,MM/DL(1)(60-64),M,Multi-ply,D,99.3,100,,,267.5,267.5,1
Shane Baker,1974-10-23,32,MN/DL(1),M,Multi-ply,D,108.2,110,,,260,260,1
Joshua Nelson,1980-07-18,26,MO/DL(2),M,Multi-ply,D,106.7,110,,,250,250,1
Joshua Nelson,1980-07-18,26,MO/DL(1),M,Multi-ply,D,106.7,110,,,250,250,1
Cory Culp,1981-04-15,25,WN/R/DL(2),M,Raw,D,56.4,60,,,95,95,1
Jose Hernandez,1982-04-15,24,MN/DL(2),M,Multi-ply,D,96.6,100,,,142.5,142.5,1
Mike Petras,1976-10-01,30,MN/R/DL(2),M,Raw,D,90,90,,,185,185,1
