Name,BirthYear,Sex,Division,WeightClassKg,BodyweightKg,Squat1Kg,Squat2Kg,Squat3Kg,Best3SquatKg,Bench1Kg,Bench2Kg,Bench3Kg,Best3BenchKg,Deadlift1Kg,Deadlift2Kg,Deadlift3Kg,Best3DeadliftKg,TotalKg,Event,Equipment,Place
Jarrod Lee,1990,M,Open,59,58.8,140,150,157.5,157.5,90,-95,97.5,97.5,170,180,-185,180,435,SBD,Raw,1
Chris Tan,1992,M,Open,66,63.1,195,202.5,210.5,210.5,117.5,127.5,-132.5,127.5,-245,245,255,255,593,SBD,Raw,1
Kavwa Sichone,1989,M,Open,66,66,190,-197.5,-197.5,190,152.5,-157.5,-157.5,152.5,205,212.5,-217.5,212.5,555,SBD,Raw,2
John Strachan,1988,M,Open,74,73.3,215,230.5,-232.5,230.5,155,-162.5,-162.5,155,250,-266,-266,250,635.5,SBD,Raw,1
Femi Alabi,1989,M,Open,74,72.3,215,227.5,235,235,122.5,132.5,137.5,137.5,235,255,-267.5,255,627.5,SBD,Raw,2
Tomas Coleman,1990,M,Open,74,72.4,170,180,187.5,187.5,-110,115,-120,115,-220,220,232.5,232.5,535,SBD,Raw,3
Riagan Loomes,1992,M,Open,74,73.4,190,200,-210,200,105,112.5,-117.5,112.5,210,217.5,222.5,222.5,535,SBD,Raw,4
Gerry Huang,1989,M,Open,83,82.9,215,230,235,235,140,150,-155,150,240,252.5,-255,252.5,637.5,SBD,Raw,1
Jak Tan,1993,M,Open,83,78.4,200,212.5,225,225,112.5,120,-125,120,230,247.5,-255,247.5,592.5,SBD,Raw,2
Dion Warren,1993,M,Open,83,79,170,180,187.5,187.5,110,115,122.5,122.5,220,235,245,245,555,SBD,Raw,3
James Wilson,1992,M,Open,83,81.4,127.5,135,140,140,65,70,72.5,72.5,120,130,137.5,137.5,350,SBD,Raw,5
Alex Orwin,1992,M,Open,93,90.1,215,230.5,240.5,240.5,137.5,147.5,-150.5,147.5,237.5,260,-265,260,648,SBD,Raw,1
Jordan Jennings,1992,M,Open,93,92.6,230,240,-245,240,135,140,-145,140,240,255,-275,255,635,SBD,Raw,2
Jason Clarke #3,1991,M,Open,93,90.5,200,210,215,215,135,140,-142.5,140,240,260,-265,260,615,SBD,Raw,3
Phindai Gapara,1986,M,Open,93,91.6,205,217.5,222.5,222.5,125,135,137.5,137.5,235,250,-260,250,610,SBD,Raw,4
Sam Tilby,1993,M,Open,93,92.6,180,192.5,-200,192.5,140,147.5,-151,147.5,205,-217.5,-220,205,545,SBD,Raw,5
Robin Leaton,1985,M,Open,93,88.6,150,160,-165,160,112.5,117.5,-122.5,117.5,165,175,-185,175,452.5,SBD,Raw,6
Andrew Quinlivan,1993,M,Open,105,104.4,240,257.5,270,270,145,152.5,-160,152.5,260,278,-290,278,700.5,SBD,Raw,1
Darren Neves,1980,M,Open,105,102,225,,,225,135,145,-155,145,235,250,-260,250,620,SBD,Raw,2
Angus Blair,1986,M,Open,105,105,215,-230,-230,215,-140,140,-142.5,140,240,255,-267.5,255,610,SBD,Raw,3
James Millar,1992,M,Open,105,104.01,195,202.5,207.5,207.5,105,110,115,115,217.5,225,232.5,232.5,555,SBD,Raw,4
Valery Drozdov,1991,M,Open,105,102.9,170,177.5,182.5,182.5,95,102.5,107.5,107.5,220,232.5,240,240,530,SBD,Raw,5
Oliver Such,1992,M,Open,105,103.1,172.5,182.5,-190,182.5,105,110,115,115,185,195,205,205,502.5,SBD,Raw,6
Dan Brockbank,1986,M,Open,105,103.4,215,-227.5,-227.5,215,-155,-160,-160,,215,-225,,215,,SBD,Raw,DQ
Edwin Ng,1979,M,Open,105,104.2,210,225,247.5,247.5,115,-125,130,130,227.5,-245,-260,227.5,,SBD,Raw,DQ
Stanley Cocker,1992,M,Open,120,119.9,285,305,-312.5,305,160,170,180,180,300,315,325.5,325.5,810.5,SBD,Raw,1
Jivan Saimone,1993,M,Open,120,119.3,240,252.5,260,260,185,192.5,-200,192.5,250,270,-280,270,722.5,SBD,Raw,2
Leethan Tau,1993,M,Open,120,118.9,220,230,-240,230,145,-152.5,-152.5,145,220,230,-240,230,605,SBD,Raw,3
Byron Van Niekerk,1986,M,Open,120+,137.6,265,285,-290,285,165,-170,170,170,270,285,300,300,755,SBD,Raw,1
Lucas Mansell,1993,M,Open,120+,147,252.5,272.5,285,285,160,170,-172.5,170,260,277.5,-302.5,277.5,732.5,SBD,Raw,2
Eric Li,1999,M,Open,83,81,180,190,-197.5,190,97.5,102.5,110,110,195,200,205,205,505,SBD,Raw,4
Zane Neemia,2000,M,Open,105,101.6,160,170,-180,170,-100,100,-107.5,100,185,200,205,205,475,SBD,Raw,7
Brendon Chaithoo,1995,M,Juniors,53,52.7,140,147.5,-157.5,147.5,90,100,102.5,102.5,165,182.5,190,190,440,SBD,Raw,1
Andy Gov,1995,M,Juniors,66,64.5,145,152.5,160,160,95,102.5,-105,102.5,190,200,207.5,207.5,470,SBD,Raw,1
Guiann Corcuera,1995,M,Juniors,66,64.8,150,160,167.5,167.5,105,112.5,115,115,170,180,-187.5,180,462.5,SBD,Raw,2
Mitchell Wahrlich,1996,M,Juniors,66,63,115,130,137.5,137.5,85,-92.5,92.5,92.5,130,145,155,155,385,SBD,Raw,3
Sumner Maxwell-Brown,1995,M,Juniors,74,73.2,200,210,-216,210,117.5,122.5,125,125,230,-240,245,245,580,SBD,Raw,1
Kane McKenzie,1994,M,Juniors,74,72.1,195,202.5,210,210,132.5,-140.5,-140.5,132.5,225,235,-240,235,577.5,SBD,Raw,2
Terence Ang,1995,M,Juniors,74,73.2,185,-195,195,195,115,122.5,-125,122.5,220,-235,-235,220,537.5,SBD,Raw,3
David Yu,1996,M,Juniors,74,67.4,165,180,-190,180,80,87.5,-92.5,87.5,195,-210,-215,195,462.5,SBD,Raw,4
Connor McCarty,1994,M,Juniors,74,73,157.5,165,170,170,100,107.5,-110,107.5,170,-177.5,177.5,177.5,455,SBD,Raw,5
Matthew Smith #2,1998,M,Juniors,74,72.3,145,155,165,165,80,87.5,-95,87.5,170,180,187.5,187.5,440,SBD,Raw,6
Dean Price,1995,M,Juniors,83,82.4,240,252.5,256,256,175,182.5,-188,182.5,245,255,-261.5,255,693.5,SBD,Raw,1
Jarrad Carmichael,1994,M,Juniors,83,82.8,195,207.5,-212.5,207.5,127.5,135,140,140,210,225,232.5,232.5,580,SBD,Raw,2
Samuel Wall,1995,M,Juniors,83,78,190,200,205,205,115,125,130,130,210,220,-235,220,555,SBD,Raw,3
Himmat Singh,1995,M,Juniors,83,81.6,-185,195,-205,195,112.5,120,-125,120,210,220,-227.5,220,535,SBD,Raw,4
Niko Notman,1997,M,Juniors,83,79.5,170,182.5,192.5,192.5,-120,120,132.5,132.5,200,-215,-215,200,525,SBD,Raw,5
Keith Miller,1995,M,Juniors,93,92.3,200,220.5,,220.5,130,-140,-140,130,242.5,257.5,-263.5,257.5,608,SBD,Raw,1
Rory Lynch,1994,M,Juniors,93,91.7,190,202.5,-207.5,202.5,140,145,147.5,147.5,240,255,-263,255,605,SBD,Raw,2
David Webber,1994,M,Juniors,93,93,192.5,202.5,-210,202.5,107.5,115,-120,115,220,230,-235,230,547.5,SBD,Raw,3
Sean King,1998,M,Juniors,93,91.7,-175,-175,-175,,-105,-105,,-105,,,,,,SBD,Raw,DQ
Finau Laurenson,1996,M,Juniors,105,104.5,205,-220,-240.5,205,130,137.5,-142.5,137.5,230,235,-240,235,577.5,SBD,Raw,1
Harry Prime,1996,M,Juniors,105,102.8,170,172.5,185,185,117.5,122.5,127.5,127.5,200,215,230,230,542.5,SBD,Raw,2
Mosese Finaulahi,1998,M,Juniors,105,104.3,160,180,190,190,-130,140,-142.5,140,190,205,-215,205,535,SBD,Raw,3
Paul Veniegas,1994,M,Juniors,105,102.4,180,-190,200,200,-115,125,-130,125,180,195,205,205,530,SBD,Raw,4
Michael Olsen,1996,M,Juniors,105,102,180,187.5,195,195,100,107.5,115,115,185,187.5,210,210,520,SBD,Raw,5
Callum Pumfleet,1995,M,Juniors,120,118.3,255,270.5,280,280,155,162.5,-167.5,162.5,270,300,-310,300,742.5,SBD,Raw,1
Simon Kelsall,1970,M,Masters 1,93,92.8,195,210,-215,210,130,-140,-140,130,200,220,-240.5,220,560,SBD,Raw,1
Les Laban,1969,M,Masters 1,105,103.7,205,220,230,230,110,125,130,130,235,250,-252.5,250,610,SBD,Raw,1
Jade Augustin,1973,M,Masters 1,105,104.7,185,195,205,205,135,140,-145,140,255,260,265,265,610,SBD,Raw,2
Manu Pihama,1977,M,Masters 1,120,114.5,232.5,245,257.5,257.5,145,152.5,-160,152.5,255,270,283,283,693,SBD,Raw,1
Sani Sanileva,1974,M,Masters 1,120,112,220,240,250,250,140,155,-160.5,155,220,232.5,242.5,242.5,647.5,SBD,Raw,2
Glenn Wright,1962,M,Masters 2,66,65.8,140,147.5,155,155,82.5,90,95,95,177.5,187.5,-200,187.5,437.5,SBD,Raw,1
Stephen King,1962,M,Masters 2,83,81.5,175,195,202.5,202.5,80,90,95,95,180,200,210,210,507.5,SBD,Raw,1
Anthony Magilsen,1958,M,Masters 2,93,88,130,-140,140,140,105,117,120,120,200,205,210,210,470,SBD,Raw,1
Kevin Strachan,1954,M,Masters 3,83,76.6,127.5,137.5,145,145,85,-90.5,-90.5,85,160,172.5,-185.5,172.5,402.5,SBD,Raw,1
Roger Gedye,1956,M,Masters 3,93,91.5,140,-150,150,150,105,112.5,-115,112.5,205,215,220,220,482.5,SBD,Raw,1
Darshika Premkumar,1988,F,Open,47,47,85,87.5,90,90,55,57.5,60,60,110,115,-117.5,115,265,SBD,Raw,1
Suzan Premji,1984,F,Open,52,51.8,105,115.5,120,120,62.5,67.5,70,70,130,140,-142.5,140,330,SBD,Raw,1
Lily Zhuang,1992,F,Open,52,51.2,-82.5,82.5,-87.5,82.5,45,47.5,50,50,115,122.5,127.5,127.5,260,SBD,Raw,2
Catherine Shon,1992,F,Open,57,55.3,120,127.5,-132.5,127.5,67.5,70,72.5,72.5,135,142.5,150,150,350,SBD,Raw,1
Siona Fernandes,1982,F,Open,57,55.6,82.5,92.5,95,95,57.5,60,62.5,62.5,100,115,125,125,282.5,SBD,Raw,2
Stephanie Fraser,1991,F,Open,57,52.7,90,95,100,100,35,37.5,-40,37.5,105,115,120,120,257.5,SBD,Raw,3
Sonia Chung,1992,F,Open,63,61.7,-170,175,-182.5,175,95,-100,-100,95,160,170,,170,440,SBD,Single-ply,1
Carolina Dillen,1983,F,Open,63,62.4,145,152.5,-160,152.5,77.5,83,85,85,162.5,172.5,180,180,417.5,SBD,Raw,1
Katie Lin,1989,F,Open,63,62.8,137.5,145,-150,145,72.5,75,-77.5,75,147.5,155,160,160,380,SBD,Raw,2
Chloe Graham,1983,F,Open,63,62.9,90,92.5,110,110,52.5,55,57.5,57.5,120,127.5,135,135,302.5,SBD,Raw,3
Loveena Pereira,1989,F,Open,63,62.2,67.5,-70,-72.5,67.5,37.5,-40,42.5,42.5,90,97.5,105,105,215,SBD,Raw,5
Tania Mustafa,1981,F,Open,72,64.7,105,-115,-115,105,60,65,-70,65,120,130,137.5,137.5,307.5,SBD,Raw,1
Angela Wilkinson,1979,F,Open,72,69.8,-95,95,,95,55,62.5,65,65,115,125,135,135,295,SBD,Raw,2
Rebecca Roy,1984,F,Open,72,71.2,105,-107.5,-107.5,105,52.5,55,-60,55,110,115,-120,115,275,SBD,Raw,3
Ashleigh Clarke,1988,F,Open,72,70,92.5,-100,100,100,52.5,-57.5,57.5,57.5,105,115,-122.5,115,272.5,SBD,Raw,4
Barbra Auva'a,1993,F,Open,84,76.9,155,165,170,170,80,90,95,95,160,172.5,-180.5,172.5,437.5,SBD,Raw,1
Emma Kiddie,1988,F,Open,84,81,95,105,115,115,45,50,-52.5,50,105,120,127.5,127.5,292.5,SBD,Raw,3
Theresa Simanu,1989,F,Open,84+,126,-175,185,190,190,95,100,105,105,195,205,215,215,510,SBD,Raw,1
Veronica Manning,1999,F,Open,63,62,80,87.5,92.5,92.5,45,50,-52.5,50,100,110,112.5,112.5,255,SBD,Raw,4
Victoria Cocker,2000,F,Open,84,78,100,107.5,117.5,117.5,42.5,47.5,52.5,52.5,135,-145,145,145,315,SBD,Raw,2
Kyla Laban,1999,F,Open,84,75.7,100,110,115,115,50,-55,55,55,100,120,-135,120,290,SBD,Raw,4
Shehnaz Hussain,1998,F,Juniors,52,49.2,92.5,95,-100,95,45,47.5,-50,47.5,100,110,115,115,257.5,SBD,Raw,1
Monica Valdez,1995,F,Juniors,57,56.2,87.5,-92.5,92.5,92.5,42.5,-47.5,-47.5,42.5,92.5,-100,-102.5,92.5,227.5,SBD,Raw,1
Melanie John,1996,F,Juniors,57,55.2,80,-87.5,-87.5,80,-45,-45,,-45,-92.5,,,-92.5,,SBD,Raw,DQ
Carissa Garcia,1996,F,Juniors,63,61.3,115,117.5,125,125,67.5,72.5,-75,72.5,155,165.5,173,173,370.5,SBD,Raw,1
Gabriella Ellen Templer,1994,F,Juniors,63,61.3,82.5,92.5,-97.5,92.5,50,52.5,-55,52.5,125,137.5,145,145,290,SBD,Raw,2
Alisa Samountry,1996,F,Juniors,72,68.8,110,120,127.5,127.5,62.5,65,67.5,67.5,130,-145,,130,325,SBD,Raw,1
Loren McCarthy,1995,F,Juniors,72,66.5,92.5,97.5,-100,97.5,55,57.5,60,60,117.5,125,127.5,127.5,285,SBD,Raw,2
Chloe Trousselot,1995,F,Juniors,72,64.7,90,95,102.5,102.5,40,47.5,-52.5,47.5,95,105,115,115,265,SBD,Raw,3
Shahde Moore,1996,F,Juniors,84,73.7,97.5,107.5,112.5,112.5,47.5,52.5,-57.5,52.5,97.5,102.5,107.5,107.5,272.5,SBD,Raw,1
Caron Kaveney,1966,F,Masters 2,57,53.6,100,-107.5,-107.5,100,52.5,57.5,60,60,132.5,145,150,150,310,SBD,Raw,1
