Name,BirthDate,Age,Tested,Equipment,Sex,Division,Event,WeightClassKg,BodyweightKg,Squat1Kg,Squat2Kg,Squat3Kg,Best3SquatKg,Bench1Kg,Bench2Kg,Bench3Kg,Best3BenchKg,Deadlift1Kg,Deadlift2Kg,Deadlift3Kg,Best3DeadliftKg,TotalKg,Place,Team
Charles Morse,1966-07-05,41,Yes,Multi-ply,M,M 40-44,B,67.5,66.9,,,,,137.5,155,-165,155,,,,,155,1,Zenzen
Iosif Plagov,1935-03-04,73,Yes,Multi-ply,M,M 70-74,B,67.5,65.7,,,,,80,85,90,90,,,,,90,2,P/U trophy
Kirby Anderson,1936-04-24,71,Yes,Multi-ply,M,M 70-74,B,67.5,66.7,,,,,97.5,105,-110,105,,,,,105,1,Stone
Adrian Gutierrez,1989-08-24,18,Yes,Multi-ply,M,T 18-19,B,67.5,67.1,,,,,127.5,-147.5,-147.5,127.5,,,,,127.5,1,Industrial Str
Kim Carter,1975-09-21,32,Yes,Multi-ply,F,Open,B,67.5,65,,,,,100,112.5,-137.5,112.5,,,,,112.5,1,Gladiators
Patti Cartee,1970-11-01,37,Yes,Multi-ply,F,SM,B,67.5,64.4,,,,,55,67.5,-77.5,67.5,,,,,67.5,1,Zenzen
Kim Carter,1975-09-21,32,No,Multi-ply,F,Open,B,67.5,65,,,,,100,112.5,-137.5,112.5,,,,,112.5,1,Gladiators
Tony Norwood,1983-05-25,25,Yes,Multi-ply,M,Open,B,75,72.8,,,,,165,170,-197.5,170,,,,,170,2,
Jeffery Haiduke,1983-04-25,24,Yes,Multi-ply,M,Open,B,75,72.2,,,,,182.5,-197.5,197.5,197.5,,,,,197.5,1,Rudy
Bernie O'Connell,1962-03-18,45,Yes,Multi-ply,M,M 45-49,B,82.5,80.8,,,,,150,160,165,165,,,,,165,1,Lance's Gym
Anton White,1972-10-18,35,Yes,Multi-ply,M,Open,B,82.5,79,,,,,187.5,-200,-200,187.5,,,,,187.5,1,Gladiators
Nick Marinis,1962-09-21,45,No,Multi-ply,M,M 45-49,B,82.5,82.5,,,,,207.5,222.5,-227.5,222.5,,,,,222.5,1,
Charles Smith,1956-03-01,52,No,Multi-ply,M,M 50-54,B,82.5,80.4,,,,,-142.5,142.5,147.5,147.5,,,,,147.5,1,
Scott Craig,1946-09-26,61,No,Multi-ply,M,M 60-64,B,82.5,81.3,,,,,-187.5,-192.5,197.5,197.5,,,,,197.5,1,
Bo DePaoli,1980-02-05,28,No,Multi-ply,M,O-Open,B,82.5,80.6,,,,,135,142.5,147.5,147.5,,,,,147.5,1,
Kevin Platt,1987-05-31,20,Yes,Multi-ply,M,Junior,B,90,89.2,,,,,-185,185,-197.5,185,,,,,185,1,Rudy
Ed Taber,1965-10-12,42,Yes,Multi-ply,M,O-M 40-44,B,90,89.1,,,,,227.5,-230,,227.5,,,,,227.5,1,Taber
Igor Kalyta,1982-06-23,25,Yes,Multi-ply,M,Open,B,90,88.5,,,,,180,190,-200,190,,,,,190,1,
Ed Taber,1965-10-12,42,No,Multi-ply,M,O-M 40-44,B,90,89.1,,,,,227.5,-230,,227.5,,,,,227.5,1,Taber
James Hummer,,36,No,Multi-ply,M,SM,B,90,88.4,,,,,165,177.5,185,185,,,,,185,1,
Walter Anczerewicz,1942-03-25,65,Yes,Multi-ply,M,M 65-69,B,100,92.4,,,,,115,-130,,115,,,,,115,1,P/U trophy
Matt Minnuth,1980-11-17,27,Yes,Multi-ply,M,Open,B,100,98.8,,,,,317.5,-325,-327.5,317.5,,,,,317.5,1,Zenzen
Walter Anczerewicz,1942-03-25,65,No,Multi-ply,M,M 65-69,B,100,92.4,,,,,115,-130,,115,,,,,115,1,P/U trophy
Fred Woodson,1967-07-10,40,Yes,Multi-ply,M,M 40-44,B,110,108.6,,,,,232.5,247.5,255,255,,,,,255,1,
Dennis Duffy,1971-07-28,36,Yes,Multi-ply,M,Open,B,110,107.5,,,,,-205,205,210,210,,,,,210,1,Maroscher
Dennis Duffy,1971-07-28,36,Yes,Multi-ply,M,SM,B,110,107.5,,,,,-205,205,210,210,,,,,210,1,Maroscher
Fred Woodson,1967-07-10,40,No,Multi-ply,M,M 40-44,B,110,108.6,,,,,232.5,247.5,255,255,,,,,255,1,
Joseph Scheiber,1975-07-04,32,No,Multi-ply,M,Open,B,125,113.8,,,,,205,-212.5,-212.5,205,,,,,205,1,Quads
Gerrit Bult,1974-04-17,33,No,Multi-ply,M,SM,B,125,111,,,,,190,197.5,202.5,202.5,,,,,202.5,1,Gladiators
John Lucas,1957-04-04,50,Yes,Multi-ply,M,M 50-54,B,125,119.4,,,,,207.5,-212.5,212.5,212.5,,,,,212.5,1,
Bill Taylor,1968-05-17,39,Yes,Multi-ply,M,Open,B,125,120.9,,,,,245,-255,260,260,,,,,260,1,Gladiators
David Lewis,1972-01-06,36,Yes,Multi-ply,M,SM,B,125,120.8,,,,,275,297.5,305,305,,,,,305,1,Gladiators
Michael Brauer,1988-09-24,19,No,Multi-ply,M,T 18-19,B,125,120.7,,,,,-152.5,152.5,-165,152.5,,,,,152.5,1,
Nicholas Detman,1980-05-15,27,Yes,Multi-ply,M,Open,B,140+,150.6,,,,,-205,205,232.5,232.5,,,,,232.5,2,Rudy
Robert Vick,1973-06-19,34,Yes,Multi-ply,M,Open,B,140+,166.2,,,,,312.5,-410,-410,312.5,,,,,312.5,1,Gladiators
Ryan Cheney,1987-03-21,20,No,Multi-ply,M,Junior,B,140+,154.5,,,,,227.5,-247.5,-247.5,227.5,,,,,227.5,1,Stone
Pat Dennis,1953-09-01,54,No,Multi-ply,M,M 50-54,B,140+,142.8,,,,,130,,,130,,,,,130,1,
Sidney Thoms,1953-09-05,54,Yes,Multi-ply,F,M 50-54,B,90+,114.6,,,,,160,170,-177.5,170,,,,,170,1,Stone
James Pinckard,1959-07-24,48,No,Multi-ply,M,M 45-49,B,100,94.3,,,,,-235,-235,-235,,,,,,,DQ,
Dave Murphy,1954-12-14,53,Yes,Multi-ply,M,M 50-54,B,110,108.4,,,,,-240,-242.5,-242.5,,,,,,,DQ,Zenzen
Dave Murphy,1954-12-14,53,No,Multi-ply,M,M 50-54,B,110,108.4,,,,,-240,-242.5,-242.5,,,,,,,DQ,Zenzen
Tony Bartolomei,1958-03-25,49,No,Multi-ply,M,O-M 45-49,B,110,110,,,,,-250,-250,-250,,,,,,,DQ,
Tim Bolger,1964-03-14,44,Yes,Multi-ply,M,M 40-44,B,110,,,,,,,,,,,,,,,NS,Gladiators
Tim McGann,1971-09-23,36,Yes,Multi-ply,M,SM,B,100,,,,,,,,,,,,,,,NS,Gladiators
Lea-Ann Domanski,1977-01-06,31,No,Multi-ply,F,Open,SBD,67.5,67,125,140,-152.5,140,80,85,-90,85,125,135,142.5,142.5,367.5,1,Stone
Rachael Fishman,1981-09-24,26,Yes,Multi-ply,F,O-Open,SBD,67.5,65.6,122.5,137.5,155,155,77.5,87.5,92.5,92.5,77.5,100,117.5,117.5,365,1,Taber
Lea-Ann Domanski,1977-01-06,31,Yes,Multi-ply,F,Open,SBD,67.5,67,125,140,,140,80,85,-90,85,125,135,142.5,142.5,367.5,1,Stone
Ashley Bryant,1985-09-22,22,No,Multi-ply,F,O-Junior,SBD,67.5,61.8,102.5,-115,-115,102.5,65,-72.5,-72.5,65,117.5,127.5,-132.5,127.5,295,1,Stone
Chris Yuhas,1985-05-01,22,Yes,Multi-ply,M,Junior,SBD,75,74.3,185,192.5,210,210,102.5,110,-120,110,185,190,210,210,530,1,
Justin Sepe,1987-05-09,20,Yes,Multi-ply,M,Junior,SBD,75,73.7,192.5,-215,-215,192.5,127.5,-137.5,-137.5,127.5,200,-227.5,-227.5,200,520,2,Stone
Matthew Sanke,1990-10-19,17,Yes,Multi-ply,M,T 16-17,SBD,75,73.1,102.5,137.5,-160,137.5,-85,97.5,-112.5,97.5,102.5,142.5,-165,142.5,377.5,1,
Chris Yuhas,1985-05-01,22,No,Multi-ply,M,Junior,SBD,75,74.3,185,192.5,210,210,102.5,110,-120,110,185,190,210,210,530,1,
Crossley Simmons,1990-03-19,17,Yes,Multi-ply,F,T 16-17,SBD,75,72.4,85,105,-117.5,105,35,47.5,-52.5,47.5,77.5,97.5,105,105,257.5,1,Stone
Stephanie van de Weghe,1961-10-31,46,No,Multi-ply,F,O-M 45-49,SBD,75,73.3,210,232.5,-245,232.5,132.5,147.5,152.5,152.5,147.5,180,192.5,192.5,577.5,1,
Stephanie van de Weghe,1961-10-31,46,No,Multi-ply,F,O-Open,SBD,75,73.3,210,232.5,-245,232.5,132.5,147.5,152.5,152.5,147.5,180,192.5,192.5,577.5,1,
Kelly Martin,1970-06-15,37,No,Multi-ply,F,O-Open,SBD,75,69,175,-195,205,205,110,-127.5,127.5,127.5,162.5,182.5,192.5,192.5,525,2,
Kelly Martin,1970-06-15,37,No,Multi-ply,F,O-SM,SBD,75,69,175,-195,205,205,110,-127.5,127.5,127.5,162.5,182.5,192.5,192.5,525,1,
Shannon Detman,1981-11-10,26,Yes,Multi-ply,F,Open,SBD,82.5,81.9,182.5,205,,205,70,82.5,-92.5,82.5,157.5,175,,175,462.5,1,Rudy
Amy Baehr,1966-01-26,42,Yes,Multi-ply,F,M 40-44,SBD,90+,117.4,175,-187.5,-190,175,97.5,107.5,-115,107.5,120,137.5,145,145,427.5,1,Stone
Jennifer Gimmell,1981-10-09,26,Yes,Multi-ply,F,Open,SBD,90+,90.4,97.5,115,-125,115,52.5,60,-75,60,117.5,130,137.5,137.5,312.5,1,Arroyo
Michael Mago,1987-12-30,20,Yes,Multi-ply,M,Junior,SBD,90,89,205,-227.5,-227.5,205,137.5,160,-167.5,160,185,205,-220,205,570,1,
Connor May,1993-07-02,14,No,Multi-ply,M,T 13-15,SBD,82.5,76.8,105,112.5,115,115,57.5,60,-70,60,105,115,120,120,295,1,
Thomas McGrath,1991-07-12,16,Yes,Multi-ply,M,T 16-17,SBD,90,89.4,227.5,245,255,255,125,-160,-160,125,185,192.5,205,205,585,1,Rudy
Tony Luna,1989-02-22,19,Yes,Multi-ply,M,T 18-19,SBD,90,90,-280,280,-305,280,172.5,-182.5,-182.5,172.5,215,230,-235,230,682.5,1,Frantz
Tyler Gannon,1992-01-16,16,Yes,Multi-ply,M,T 16-17,SBD,100,99.2,227.5,250,-265,250,122.5,160,-167.5,160,205,227.5,-232.5,227.5,637.5,1,Rudy
Blake Faletti,1990-07-20,17,Yes,Multi-ply,M,T 16-17,SBD,100,96.4,-200,200,215,215,102.5,140,-147.5,140,182.5,192.5,205,205,560,2,Rudy
Anthony Basso,1991-06-12,16,Yes,Multi-ply,M,T 16-17,SBD,100,93.3,205,220,-227.5,220,112.5,-142.5,-142.5,112.5,205,220,-227.5,220,552.5,3,Rudy
Daniel Foreman,1992-03-03,16,Yes,Multi-ply,M,T 16-17,SBD,125,119.9,245,-260,-260,245,102.5,-125,-125,102.5,227.5,-250,-250,227.5,575,1,Rudy
Eric Lilliebridge,1990-03-07,18,No,Wraps,M,T 18-19,SBD,110,109,230,252.5,280,280,160,175,190,190,262.5,285,305,305,775,1,Zenzen
Barzeen Vaziri,1984-11-25,23,Yes,Multi-ply,M,Junior,SBD,125,119.9,335,-365,-380,335,182.5,192.5,200,200,250,265,272.5,272.5,807.5,1,Frantz
Joseph Kripp,1991-06-10,16,Yes,Multi-ply,M,T 16-17,SBD,125,123.5,265,277.5,-282.5,277.5,185,192.5,-205,192.5,227.5,272.5,-277.5,272.5,742.5,1,Rudy
Nicholas Blatti,1991-02-21,17,Yes,Multi-ply,M,T 16-17,SBD,140,129.5,227.5,245,-250,245,-115,115,137.5,137.5,205,220,-227.5,220,602.5,1,Rudy
Nate Fonck,1989-09-30,18,Yes,Multi-ply,M,T 18-19,SBD,140,134,272.5,317.5,325,325,160,-240,-240,160,227.5,260,,260,745,1,Rudy
Katy Deer,1965-03-16,42,No,Multi-ply,F,M 40-44,SBD,52,49.4,-125,-125,-125,,-60,-60,60,60,112.5,125,-132.5,125,,DQ,Soviet Force
Katy Deer,1965-03-16,42,No,Multi-ply,F,Open,SBD,52,49.4,-125,-125,-125,,-60,-60,60,60,112.5,,,112.5,,DQ,Soviet Force
Katy Deer,1965-03-16,42,Yes,Multi-ply,F,Open,SBD,52,49.4,-125,-125,-125,,-60,-60,60,60,112.5,,,112.5,,DQ,Soviet Force
Katy Deer,1965-03-16,42,Yes,Multi-ply,F,M 40-44,SBD,52,49.4,-125,-125,-125,,-60,-60,60,60,112.5,,,112.5,,DQ,Soviet Force
Tom Jacobs,1986-02-25,22,Yes,Multi-ply,M,Junior,SBD,110,108,-310,-332.5,-332.5,,220,,,220,272.5,,,272.5,,DQ,Arroyo
Ernie Lilliebridge Jr,1987-12-13,20,No,Multi-ply,M,Junior,SBD,100,99,-322.5,-340,-345,,217.5,,,217.5,250,,,250,,DQ,Zenzen
Wisam Eid,1984-03-07,23,No,Multi-ply,M,Junior,SBD,75,71.1,157.5,-167.5,175,175,,,,,182.5,195,205,205,,DQ,Diamond
Kirby Anderson,1936-04-24,71,Yes,Multi-ply,M,M 70-74,SBD,67.5,66.5,140,-155,-155,140,97.5,102.5,105,105,115,125,132.5,132.5,377.5,1,Stone
Aman Singh,1989-04-15,18,Yes,Multi-ply,M,Open,SBD,75,70.4,72.5,82.5,85,85,72.5,82.5,-85,82.5,102.5,125,140,140,307.5,1,
Martin Caliendo,1952-06-09,55,No,Multi-ply,M,M 55-59,SBD,75,75,212.5,-227.5,-227.5,212.5,152.5,162.5,167.5,167.5,192.5,205,217.5,217.5,597.5,1,Frantz
Mike Strom,1980-05-28,27,Yes,Multi-ply,M,O-Open,SBD,82.5,82.4,-280,-280,280,280,-240,240,250,250,215,230,240,240,770,1,Industrial Str
Thomas Krawiec,1982-09-19,25,Yes,Multi-ply,M,Open,SBD,82.5,82.1,-267.5,267.5,292.5,292.5,150,162.5,-170,162.5,237.5,262.5,-272.5,262.5,717.5,1,Aurora
Mark Hibbing,1968-11-05,39,Yes,Multi-ply,M,SM,SBD,82.5,81.5,227.5,-272.5,-272.5,227.5,125,-150,-165,125,195,230,-232.5,230,582.5,1,Zenzen
Michael Rybinski,1969-09-28,38,Yes,Multi-ply,M,Open,SBD,90,85.5,245,257.5,267.5,267.5,165,172.5,-177.5,172.5,250,265,275,275,715,1,Quads
Kevin Wagner,1990-10-20,27,Yes,Multi-ply,M,Open,SBD,90,87.9,-235,-235,235,235,120,147.5,-167.5,147.5,215,225,237.5,237.5,620,2,Frantz
Ed Park,1973-10-27,34,Yes,Multi-ply,M,SM,SBD,90,86.8,197.5,207.5,-212.5,207.5,105,115,122.5,122.5,200,-207.5,-207.5,200,530,1,Calvary
Jordan Evans,1958-04-05,49,No,Multi-ply,M,M 45-49,SBD,90,90,210,-232.5,232.5,232.5,115,127.5,-130,127.5,220,247.5,-257.5,247.5,607.5,1,
Dick Zenzen,1952-05-21,55,Yes,Multi-ply,M,M 55-59,SBD,100,98.8,-272.5,292.5,317.5,317.5,140,157.5,-170,157.5,212.5,230,242.5,242.5,717.5,1,Zenzen
Steve Wagner,1982-05-25,25,Yes,Multi-ply,M,Open,SBD,100,99.2,310,-327.5,327.5,327.5,195,-207.5,-212.5,195,240,255,265,265,787.5,1,Frantz
Jesse Stanton,1984-10-15,23,Yes,Multi-ply,M,Open,SBD,100,98,297.5,320,-342.5,320,145,-185,185,185,252.5,272.5,-282.5,272.5,777.5,2,Frantz
Greg Zajac,1975-04-02,32,Yes,Multi-ply,M,Open,SBD,100,98.5,317.5,-340,-340,317.5,-205,205,215,215,245,-272.5,-272.5,245,777.5,3,
Tom Carnaghi,1962-08-17,45,No,Multi-ply,M,M 45-49,SBD,100,92.7,-327.5,-327.5,327.5,327.5,155,-165,165,165,252.5,272.5,,272.5,765,1,Frantz
Dick Zenzen,1952-05-21,55,No,Multi-ply,M,M 55-59,SBD,100,98.8,-272.5,292.5,317.5,317.5,140,157.5,-170,157.5,212.5,230,242.5,242.5,717.5,1,Zenzen
John Burgard,1948-09-21,59,No,Multi-ply,M,M 55-59,SBD,100,97.6,240,275,-300,275,125,137.5,-150,137.5,220,-255,-255,220,632.5,2,Frantz
Jason Benter,1976-10-16,31,Yes,Multi-ply,M,O-Open,SBD,110,107.6,235,255,280,280,137.5,-170,175,175,220,242.5,-247.5,242.5,697.5,1,
Joe Atef,1976-09-11,31,Yes,Multi-ply,M,Open,SBD,110,109.1,355,365,377.5,377.5,205,-267.5,-267.5,205,255,-270,-272.5,255,837.5,1,Frantz
Husain Abdulaziz,1972-07-18,36,Yes,Multi-ply,M,Open,SBD,110,106.3,272.5,295,-317.5,295,177.5,205,215,215,297.5,-330,-330,297.5,807.5,2,Arroyo
Jason Visny,1979-08-30,28,Yes,Multi-ply,M,Open,SBD,110,109.3,290,-320,-320,290,185,205,210,210,220,-245,-245,220,720,3,Stone
Husain Abdulaziz,1972-07-18,36,Yes,Multi-ply,M,SM,SBD,110,106.3,272.5,295,-317.5,295,177.5,205,215,215,297.5,-330,-330,297.5,807.5,1,Arroyo
Tim Wilke,1974-02-16,34,Yes,Multi-ply,M,SM,SBD,110,110,272.5,295,320,320,125,142.5,-157.5,142.5,-250,272.5,,272.5,735,2,
Al Baehr,1965-01-20,43,No,Multi-ply,M,M 40-44,SBD,110,109,295,305,,305,-175,175,-190,175,245,265,277.5,277.5,757.5,1,Stone
Mark Chellino,1962-01-25,46,No,Multi-ply,M,M 45-49,SBD,110,108,340,-347.5,-350,340,247.5,277.5,282.5,282.5,202.5,227.5,240,240,862.5,1,
Edward May,1959-09-02,48,No,Multi-ply,M,O-Open,SBD,110,105.6,142.5,160,175,175,92.5,97.5,107.5,107.5,185,-190,190,190,472.5,1,
Jim Prusha,1969-05-31,38,No,Multi-ply,M,Open,SBD,110,107.2,272.5,287.5,302.5,302.5,200,210,217.5,217.5,242.5,247.5,255,255,775,1,Lance's Gym
Al Baehr,1965-01-20,43,No,Multi-ply,M,Open,SBD,110,109,295,305,,305,-175,175,-190,175,245,265,277.5,277.5,757.5,2,Stone
Gregg Kaske,1949-01-04,59,Yes,Multi-ply,M,M 55-59,SBD,125,121.8,137.5,155,-165,155,92.5,105,-107.5,105,147.5,162.5,165,165,425,1,
Tom Grimm,1948-12-27,59,Yes,Multi-ply,M,M 55-59,SBD,125,112.6,102.5,127.5,-142.5,127.5,102.5,105,110,110,112.5,130,145,145,382.5,2,Diamond
Andrew Weeks,1980-02-11,28,Yes,Multi-ply,M,Open,SBD,125,117.1,235,-245,-245,235,162.5,-170,-170,162.5,235,245,252.5,252.5,650,1,Quads
Jose Garcia,1977-05-12,30,No,Multi-ply,M,Open,SBD,125,117.3,-455,455,-475,455,245,-292.5,-300,245,347.5,-367.5,-367.5,347.5,1047.5,1,Frantz
Chris Haigh,1980-01-10,28,No,Multi-ply,M,Open,SBD,125,113.8,300,325,340,340,272.5,282.5,292.5,292.5,272.5,282.5,297.5,297.5,930,2,
Pete Arroyo,1979-06-10,28,No,Multi-ply,M,Open,SBD,125,117.8,355,372.5,-385,372.5,-245,-245,245,245,272.5,285,292.5,292.5,910,3,Arroyo
Chip Beck,1972-09-30,35,No,Multi-ply,M,O-SM,SBD,125,124.2,227.5,232.5,235,235,175,182.5,-187.5,182.5,227.5,250,262.5,262.5,680,1,
Phillip Daniels,,35,Yes,Multi-ply,M,Open,SBD,140,138,255,267.5,287.5,287.5,175,182.5,187.5,187.5,227.5,250,272.5,272.5,747.5,1,Maroscher
Phillip Daniels,1973-03-04,35,Yes,Multi-ply,M,SM,SBD,140,138,255,267.5,287.5,287.5,175,182.5,187.5,187.5,227.5,250,272.5,272.5,747.5,1,Maroscher
Phillip Daniels,1973-03-04,35,No,Multi-ply,M,Open,SBD,140,138,255,267.5,287.5,287.5,175,182.5,187.5,187.5,227.5,250,272.5,272.5,747.5,1,Maroscher
Phillip Daniels,1973-03-04,35,No,Multi-ply,M,SM,SBD,140,138,255,267.5,287.5,287.5,175,182.5,187.5,187.5,227.5,250,272.5,272.5,747.5,1,Maroscher
Steve Brodsky,1961-02-09,46,Yes,Multi-ply,M,M 45-49,SBD,140+,146.7,240,262.5,277.5,277.5,120,130,137.5,137.5,232.5,242.5,-247.5,242.5,657.5,1,Leaning Tower Y
Todd Moore,1982-10-01,25,Yes,Multi-ply,M,Open,SBD,140+,140.2,205,285,-335,285,165,197.5,217.5,217.5,252.5,295,-327.5,295,797.5,1,
Harlan South,1966-01-22,42,Yes,Multi-ply,M,M 40-44,SBD,100,99.8,-272.5,-272.5,-272.5,,102.5,,,102.5,252.5,,,252.5,,DQ,
Ed Czerwin,1979-10-13,28,No,Multi-ply,M,Open,SBD,125,121.1,-250,,,,215,,,215,205,,,205,,DQ,Arroyo
Corey Akers,1975-03-11,32,No,Multi-ply,M,Open,SBD,100,99.7,-422.5,-422.5,-422.5,,277.5,,,277.5,295,,,295,,DQ,Zenzen
Harold Barnwell,1975-10-04,32,Yes,Multi-ply,M,O-Open,SBD,125,123.4,-295,-312.5,-312.5,,200,,,200,272.5,,,272.5,,DQ,
Bruce McCord,1961-05-07,46,No,Multi-ply,M,M 45-49,SBD,100,99.9,257.5,-277.5,277.5,277.5,-182.5,-182.5,-182.5,,235,,,235,,DQ,Zenzen
Bruce McCord,1961-05-07,46,Yes,Multi-ply,M,M 45-49,SBD,100,99.9,257.5,-277.5,277.5,277.5,-182.5,-182.5,-182.5,,235,,,235,,DQ,Zenzen
Noel Levario,1973-10-25,34,No,Multi-ply,M,Open,SBD,125,114.7,-427.5,435,-455,435,-260,-260,-287.5,,-275,,,,,DQ,Frantz
Noel Levario,1973-10-25,34,No,Multi-ply,M,SM,SBD,125,114.7,-427.5,435,-455,435,-260,-260,-287.5,,-275,,,,,DQ,Frantz
Zachary Kroeger,1976-04-06,31,No,Multi-ply,M,Open,SBD,110,109.5,-345,,,,232.5,,,232.5,275,,,275,,DQ,Gladiators
Ernie Lilliebridge Sr,1971-12-14,36,No,Multi-ply,M,SM,SBD,140,,,,,,,,,,,,,,,NS,Zenzen
Ernie Lilliebridge Sr,1971-12-14,36,No,Multi-ply,M,Open,SBD,140,,,,,,,,,,,,,,,NS,Zenzen
